-1.2712236483431429
-1.9056425342748623
-3.4659274507666705
-4.7590027002818529
-5.9327833229213123
-7.0762104597774239
-8.1956533030537242
-9.2758816112917329
-10.096595612155294
-10.053558454547706
-10.191637533781628
-10.295564490075984
-10.397893141411684
-10.448930537169731
-10.480140723357837
-10.502249804418217
-10.519039534076126
-10.532501890237506
-10.543944023808585
-10.554055626365627
-10.563261298047821
