0.20949 0.20943 -1.6074
0.38142 0.38137 -1.4337
0.77665 0.7766 -1.0394
20 20 20
20 20 20
20 20 20
20 20 20
20 20 20
20 20 20
20 20 20
20 20 20
20 20 20
20 20 20
20 20 20
20 20 20
20 20 20
20 20 20
20 20 20
20 20 20
20 20 20
