-1.7323943548581179 -4.4629156281001315 -1.7323951059836424
-1.9081704894497636 -4.5122815415935861 -1.9081718338654026
-2.8636994171227268 -5.432111555879272 -2.8637010017664064
-3.7335870740437149 -6.6062271542494061 -3.7335874644120169
-4.6209774575984497 -7.2048719611294911 -4.6209789331921219
-5.3538138691825382 -8.170294325432967 -5.3538143747672217
-5.9840157073871488 -8.8589059925595549 -5.9840160937311129
-6.5606750476581632 -9.4960277487816257 -6.5606753401065337
-7.1290108046438528 -10.100225384542859 -7.1290110525717539
-7.6846320579916944 -10.658933539407816 -7.6846323024200563
-8.2384031361730799 -11.202050690801144 -8.2384033928929375
-8.7899687692169321 -11.74942341874865 -8.7899690309419742
-9.3416282304293358 -12.29603172196261 -9.3416284983138449
-9.893242289969443 -12.841132701492971 -9.8932425660105552
-10.016933359942932 -12.2474639565749 -10.016940870992592
