-1.4201504485489204 -2.9127937501062243 -1.4203751947913277
-2.951952555534879 -3.1117660352704814 -3.0935509462636989
-5.2572995073261719 -5.4108452973342464 -5.4048254330670822
-7.2562453532948986 -7.4127912822489843 -7.4008924034331155
-9.4725870684683888 -9.6163135533835187 -9.6301096711827709
-10.470253565878003 -10.656195351997146 -10.590318991084863
