-1.5819467556257839 -4.2879807487868783 -1.5819475964150722
-1.7546508187239929 -2.9639716485800516 -1.7554805589244213
-2.5473635560492634 -3.8084836517923218 -2.5480169383150198
-3.1271502999413879 -4.5424114297172039 -3.1274713354360849
-3.6481709234461134 -5.2147284421551797 -3.6483308052907368
-4.031182980023194 -5.7132882912097547 -4.0312768739676074
-4.3538626448574019 -6.061922402524872 -4.3539459588815195
-4.6469403528660027 -6.5282935732455736 -4.6469778575386375
-4.9365540009850884 -6.9266078713389919 -4.9365767346423612
-5.2173473247829559 -7.2991819833069473 -5.2173622218199254
-5.5013543248541273 -7.7044307914493506 -5.5013628481959479
-5.7784991632815814 -8.0040023000152532 -5.778506850261192
-6.0496196790907459 -8.2821503526216535 -6.0496271212748737
-6.3098464633314219 -8.5466478762735046 -6.3098537605740584
-6.559980230838915 -8.8209540776686001 -6.5599867593350367
-6.7997218671098191 -9.0991912824940944 -6.799727335014722
-7.0303930527513782 -9.3800800051556137 -7.0303973917024194
-7.2528063394499292 -9.6572791725590253 -7.2528097108634239
-7.4679963954343472 -9.9300484442991844 -7.467998981578947
-7.6768072886714749 -10.193966848585137 -7.6768092951624113
-7.8800320519238135 -10.449643003179231 -7.8800336278431671
