-2.1016 -2.3934 -2.1672
-3.3577 -3.6611 -3.4193
-4.6055 -4.9148 -4.6652
-5.6103 -5.9121 -5.6726
-6.6469 -6.9506 -6.7085
-7.5999 -7.9032 -7.6616
-8.558 -8.8624 -8.6194
-9.4932 -9.7977 -9.5545
-10.426 -10.73 -10.487
