-1.7323943548581179 -3.8158837370981679 -1.7324091388030097
-2.6269941113024093 -4.4061440133203621 -2.6270541615165477
-3.7799043864530193 -5.6161221930293793 -3.7799505569843239
-4.9528160907543188 -6.7960280136238656 -4.9528607977180798
-6.1302392570106151 -7.983024343398219 -6.1302820356454183
-7.3072058200131833 -9.1588911240954817 -7.307248815879374
-8.4847424402037949 -10.337049503472523 -8.4847853131235731
-9.6617515276791282 -11.513831642589162 -9.6617944454347844
-10.282433749916583 -12.07411722250979 -10.282490431771102
