-1.4293240158289136
-2.6878974843362009
-3.9295515726552727
-4.6933966582504568
-5.3917766237229532
-6.0826065861480865
-6.7734355106438545
-7.4653247425238615
-8.1580905171446538
-8.8514113484589495
-9.5437450571074413
-10.04984907775249
-10.034217184310874
-10.0799260493109
-10.126137806094031
-10.170975400806327
-10.036988575280452
-10.165763405321128
-10.032988660714516
-10.157828581092619
-10.023638690906096
