-1.27117219321976 -3.0838607661309535 -1.2712236483431429
-2.6180551841624334 -3.6304306057799257 -2.6201161119275541
-4.4272362552821752 -5.3840388543721019 -4.4299019603368959
-6.0915075468326916 -7.0335395220429258 -6.0943621241821551
-7.7439638091340478 -8.6889133186501327 -7.7467800414993757
-9.4032570453797814 -10.347215892273454 -9.406086239482673
-10.475424064011771 -11.245789350892218 -10.481767902776944
