-1.5819467556257839 -3.5987964333373495 -1.5819668500263098
-3.494222197687946 -3.7867086095459838 -3.5596157949397197
-5.3970609769293335 -5.6849713497665561 -5.4640858161471335
-7.0640908398964393 -7.3493637139461009 -7.1320773416061327
-8.8204514572285641 -9.0434292992176284 -8.9167289262960091
-10.063216066332004 -10.158708993353612 -10.287607142771537
