-1.7323943548581179 -4.4629156281001315 -1.7323951059836424
-1.6142994607993866 -3.8354698599949919 -1.6143073027004565
-2.1749274799973905 -4.2093553544795668 -2.1749460117757897
-2.5312460219885853 -4.9333855170192978 -2.5312494298249538
-2.7707005318900596 -5.1682469362575213 -2.7707040125771908
-2.9764434083543042 -5.4447419532004168 -2.9764459211648078
-3.2220904405578857 -5.8545491856597078 -3.2220916204383361
-3.4363726571832759 -5.7094832753249578 -3.4363788307941606
-3.5433061826174786 -5.6844600784129054 -3.5433175185658672
-3.5925880343176396 -5.8653366057258757 -3.5925942182304367
-3.6795172835511359 -6.2522644709666119 -3.6795188368731389
-3.8098410659398145 -6.6915641826353251 -3.8098414403162084
-3.9624610056369333 -6.262752552717805 -3.9624664528789204
-4.1050882418083151 -6.1951086148947543 -4.1051025877121497
-4.2256748359431978 -6.2673981192202442 -4.2256927554341568
-4.3536158595731664 -6.4355951485547816 -4.3536307466909596
-4.515519297756617 -6.7218847571599767 -4.5155276929710215
-4.7193536190487528 -7.2140173575906138 -4.7193558445562623
-4.9312384532806531 -7.3622540010670332 -4.9312414367817617
-5.0639779645748433 -7.1720141200864077 -5.063991168261467
-5.1276746896642886 -7.1924439505784647 -5.1276908047236185
