-1.27117219321976 -2.6957064463454059 -1.2714797982109696
-0.92470200489556258 -0.98022445219725572 -1.2480148850041714
-2.0185057389437892 -2.1614729951025905 -2.1768403042928974
-2.528556221339351 -2.6776999754853416 -2.6804511770590986
-2.9207725942618038 -3.0417164132021166 -3.1055303053041664
-3.25319037217997 -3.3600061483791082 -3.4584728155681015
-3.551246066980906 -3.661648669947173 -3.7510010873975072
-3.8312967548195517 -3.9554949545358175 -4.0117635710025161
-4.1034168787232874 -4.2451391504319211 -4.2630957177818067
-4.3731927279221151 -4.5325432143288848 -4.5152177317382078
-4.6434585591997244 -4.8189525902097217 -4.771573779670492
-4.9155457460514426 -5.1051979955996327 -5.0329117662316935
-5.1900126060683739 -5.3918350031908182 -5.2990559910254149
-5.4670319171025927 -5.6792289827492292 -5.5695656625269294
-5.7465892291905718 -5.9676130775306838 -5.8439646299720231
-6.0285833986503817 -6.2571289100519438 -6.1218153032464875
-6.3128776527195759 -6.5478555184628173 -6.4027370769829116
-6.599325357997907 -6.8398295862245651 -6.686405672060197
-6.8877828788584189 -7.1330597150988963 -6.9725467289603212
-7.1781155322316579 -7.4275361405656237 -7.2609282795756962
-7.4702003198614225 -7.7232381172520541 -7.5513539268697634
