-1.5795280989615252 -3.3643387436021961 -1.5795866037656752
-3.3864559839547514 -3.5310261803565678 -3.5430831250217322
-5.4895710371064092 -5.6373640610572743 -5.6428425627758134
-7.3226457473495498 -7.4474727384515954 -7.5023004760131234
-8.82180863755578 -8.8814879930620809 -9.1314304284271207
-10.116203878861773 -10.156459929892722 -10.501982611766275
