-1.27117219321976 -3.0838607661309535 -1.2712236483431429
-1.8610911681474007 -3.5809668451053803 -1.8611700690297969
-3.3823959758002708 -4.9267861479127843 -3.3825730482647665
-4.6318309008026463 -6.1609695618179207 -4.632020862893836
-5.7785003726656714 -7.2717594258830411 -5.7787244821825864
-6.8917513901290625 -8.3807437933380816 -6.8919799489821192
-8.0106482170385196 -9.49732269694291 -8.010879230000375
-9.1245672770804278 -10.608040060721117 -9.124801723267223
-10.046754067017583 -11.590520003883332 -10.046931649454843
