-1.7323943548581179 -4.4629156281001315 -1.7323951059836424
-1.754309529611121 -4.5414856523876517 -1.7543101082433889
-2.5843504420578148 -5.3499785275414535 -2.5843510810547625
-3.2970906150159956 -6.295473898293542 -3.2970908337860969
-4.0819601768625303 -6.9081278093118822 -4.081960660388199
-4.6669435266898944 -7.5942439372529055 -4.6669438301864719
-5.173622837903265 -8.2092431912131525 -5.173623022198367
-5.6179022494606796 -8.7036359659419527 -5.6179023957750656
-6.0406674000262968 -9.3011451249153008 -6.040667465459613
-6.4524689068383811 -9.7842702830342168 -6.4524689539525582
-6.8612037333688137 -10.223598393108505 -6.861203774291585
-7.2680631732995877 -10.63376420529647 -7.2680632136039721
-7.6741651376552335 -11.036463955648244 -7.6741651785960708
-8.0798834221331039 -11.436763521955884 -8.0798834641084377
-8.4854803809020822 -11.837711603269579 -8.4854804237857491
-8.8910492240190141 -12.239473820230038 -8.8910492676610666
-9.2966240645504675 -12.641663112298236 -9.2966241088782764
-9.7022270776876386 -13.041562172660978 -9.7022271231952636
-10.035988802542197 -13.170390522814559 -10.035988919478939
