-1.5819467556257839 -4.2879807487868783 -1.5819475964150722
-2.0902797311520612 -3.7060887798429312 -2.0904071587919886
-3.3337399436269775 -5.3654332689648828 -3.3337587102630212
-4.6103769938922367 -6.4360907564726927 -4.6104254529815988
-5.7609652128349557 -7.5792742423401665 -5.7610153530735114
-6.9144534684534537 -8.9469467822259759 -6.9144721660758821
-8.0021138128606108 -10.039837468436691 -8.0021320654824865
-9.0113244153529636 -11.192708469176635 -9.0113338341540832
-9.936643759043909 -12.26927185748367 -9.9366484526086457
-10.207999441425735 -11.938441800944502 -10.208074594153271
