-inf
-3.3953339935183843
-3.3928036829532991
-3.4563289324713907
-3.4946226046186699
-3.5737526563026564
-3.7201730886387976
-3.8984652747888731
-3.8897393582996526
-3.889531275370724
-4.0006906147062582
-4.0159176541126619
-3.9965893511963661
-4.0415703728941583
-4.0292107295077541
-4.0037204265587254
-4.065243577348094
-4.190800880372559
-4.2355947092441415
-4.2185310761145989
-4.2527731169918347
-4.2944342383715264
-4.2937904920886136
-4.2974712764453462
-4.3323026481156111
-4.3750760493219749
-4.3945133533592509
-4.4033348541284224
-4.4273609228154303
-4.4593886732676405
-4.4766404275458067
-4.4828400066706618
-4.5011093193658387
-4.5390094188194766
-4.5777486723990785
-4.5957208290956349
-4.6055632184694058
-4.6292141876000258
-4.6626380492241376
-4.68865519209197
-4.7077461402232842
-4.7309288324364898
-4.7570114557477381
-4.7815275702363692
-4.8118703020536658
-4.8555685981588497
-4.9014691580213069
-4.9219006314612965
-4.9062066449944556
-4.8747789039473471
-4.849289016019521
-4.8394829116651625
-4.8478317044079279
-4.8727909867632338
-4.908832444779474
-4.9474035478513431
-4.9823992634020432
-5.0153604324330457
-5.0508035764720234
-5.0857378234794033
-5.1071915045662398
-5.1063057228021386
-5.0918860568266004
-5.0801528902274954
-5.0812447114291319
-5.0978942004745301
-5.1280009697418093
-5.1659673580813926
-5.2034427394048028
-5.2316416111018653
-5.2457699623296205
-5.2478658422517169
-5.2446564500872196
-5.2431685063929088
-5.2479566733872952
-5.2604740789666391
-5.2799841141080758
-5.305510762918789
-5.3374247498536424
-5.3767258678671167
-5.4217593130622485
-5.4645300613566994
-5.4915085641547537
-5.4938421163620639
-5.4768352916767368
-5.4536351952731284
-5.4348862844615297
-5.4264424628151044
-5.4309792309864035
-5.4491769418524489
-5.4798874363433801
-5.5196576655004362
-5.5620182879418901
-5.5976928458884146
-5.6180380434994445
-5.6212101267840496
-5.6139966551006903
-5.6065614390048169
-5.6072443062292397
-5.6213095129302268
-5.6515161861131805
