-inf
-2.851313962492631
-3.1213048153991959
-3.2639674122842322
-3.4304615811514079
-3.6718732722597473
-3.8103008534760875
-3.9745804422008292
-4.1508093944126122
-4.3179914998814035
-4.4827462786677933
-4.6470579080247396
-4.7939178431875294
-4.943377392655202
-5.0767139236909018
-5.2010221242668182
-5.3237921168016069
-5.480819002041562
-5.6693693582984299
-5.785376897658053
-5.8746255520312256
-6.0085010771007953
-6.1409748935523428
-6.2609668220748797
-6.3163166164650083
-6.3969128845153411
-6.5597656858483755
-6.7466679496182178
-6.8795975659605217
-6.9658308201504977
-7.0802658548806321
-7.2548471620928006
-7.3883487890344619
-7.4587396171263588
-7.5391009280900281
-7.6746618747433961
-7.8704103277693832
-8.0202591058733728
-8.0975671243714026
-8.2069921413305408
-8.3496119733826769
-8.466967307422244
-8.5141605167256655
-8.580706046516563
-8.7099137551725662
-8.8815382766200723
-9.035459406313768
-9.1292830766746739
-9.2259074581423931
-9.3620732414544838
-9.4784124049449087
-9.5421067366102866
-9.604905493059676
-9.7112005858327234
-9.8609599979361003
-10.01333605234543
-10.13050317911816
-10.233101514281936
-10.344915400000393
-10.451511290698373
-10.528284803501155
-10.601877428927879
-10.702203450931929
-10.829870783630363
-10.962314733521453
-11.076002772106304
-11.176167774523991
-11.27641470961907
-11.369306351405469
-11.448411510293011
-11.525885890818539
-11.619040856151728
-11.730739312503854
-11.849595419244032
-11.962504969246348
-12.067341170658979
-12.168108563874521
-12.26431454322951
