-inf
-4.646852928620535
-4.3199099591624355
-3.9564538909426865
-4.0536811143638174
-3.7837948922850986
-3.7658594230798562
-4.0027638311399135
-4.0607250021760796
-4.0869589009231101
-4.0493717193351507
-4.1828231564724047
-4.241261936704915
-4.1196694610698463
-4.0470589088286395
-4.0535389342183686
-4.099031209992963
-4.0775153497928674
-4.042678910447207
-4.0425442508953177
-4.0695999256415992
-4.0936482705674084
-4.0947110790741312
-4.092106776886771
-4.1116865481100011
-4.1508577284455592
-4.1848041281341406
-4.2014122833672193
-4.2160072872149019
-4.2340500287950978
-4.2338148250797463
-4.2083068393110848
-4.1881573737726404
-4.1962562062990171
-4.2284962513350342
-4.2612826049766629
-4.2778758215499673
-4.2886215354121366
-4.3087767235718672
-4.3381701296269936
-4.3677517563343364
-4.3935806500657918
-4.4167338561418395
-4.4316468246653999
-4.4260740670523673
-4.3973537727915298
-4.3588086855839316
-4.3255348293975412
-4.3038155584123311
-4.2917876716051887
-4.2846304586414753
-4.2797215068472784
-4.2782872362740315
-4.283194423104486
-4.2962853426663594
-4.3172576848925424
-4.3433481304758108
-4.369135430920074
-4.3877276671153736
-4.3946897074565748
-4.3913359212362227
-4.3825391775828332
-4.3723752268704872
-4.3633751749101759
-4.3586006121779549
-4.3625688597287576
-4.3797282943602085
-4.4119648627073943
-4.4561731873289111
-4.5023678230744163
-4.5358282072590922
-4.5475713912707249
-4.5424822723394297
-4.5315267400574862
-4.5211704937280673
-4.5118551986326945
-4.5016539535800641
-4.4900254046919845
-4.478929517393965
-4.4712173174822914
-4.4685288079624458
-4.4703674353364056
-4.4744549496267967
-4.4779630603724821
-4.4790588862021705
-4.4778113280712076
-4.4757534633801717
-4.4745735538618341
-4.4750932715683529
-4.477195575040553
-4.480527841976176
-4.4852754089122927
-4.4923091698856844
-4.5026133421216119
-4.5165410744987435
-4.5335215136863751
-4.5524536679075989
-4.5724821424606698
-4.5934025522257409
-4.61509425316892
-4.6362964656447807
