-inf
-4.7171354966004131
-4.4905857062869517
-4.1819773711954955
-4.3095708670406785
-4.1626304458961633
-4.1550810010303755
-4.4433217358178513
-4.6229404157974186
-4.5753183552626701
-4.573769541303118
-4.6559840339063558
-4.7521303958190478
-4.8172660535959059
-4.8535019024101676
-4.8709394597036996
-4.9329209894560188
-5.0280725937649893
-5.0934004128502471
-5.1262450417372543
-5.1573240639985258
-5.2030790817757153
-5.2715293584150155
-5.357347948409188
-5.4335860790928901
-5.4814603919164761
-5.5181986164953475
-5.562306703979057
-5.6149242195271401
-5.6688306097453089
-5.7121276461468239
-5.7333386149331962
-5.7360413742970179
-5.736979332200934
-5.7498444630605676
-5.7797944510198078
-5.8253673262267283
-5.8796341266948758
-5.9316145807742442
-5.9724260510468346
-6.0026668133072547
-6.0301212235334147
-6.0611607278242091
-6.0968360213583559
-6.1343855971228165
-6.1705399183144898
-6.204073906250924
-6.2361759446470923
-6.269102473809734
-6.3047836507625963
-6.3442425480309355
-6.3875887671396977
-6.4341001268821619
-6.4821483865787628
-6.529066921682682
-6.5713949417179141
-6.605977067496314
-6.6316299156320084
-6.649979976182204
-6.6645320282532191
-6.6788890488806667
-6.695560721040169
-6.7157313563050657
-6.7395800536058557
-6.7667197241981063
-6.796525137033116
-6.8282855801394739
-6.8612382616094734
-6.8946090238675925
-6.9277636739286847
-6.9604507833551048
-6.9929834758611975
-7.0261987372619827
-7.0611766109726486
-7.0988550502809605
-7.1396999231704022
-7.183510096823355
-7.2293640107456369
-7.2756985454825909
-7.3205311039753076
-7.3618396387368278
-7.3980549749834375
-7.4285016101847493
-7.4535594840000999
-7.4744390989487659
-7.4927015005886321
-7.5097839938162704
-7.5267193088164785
-7.5440836486350334
-7.5621072679013136
-7.5808510286899474
-7.6003650077473168
-7.6207806585205405
-7.6423326328397576
-7.6653398523000504
-7.6901810743316715
-7.7172809890727946
-7.7470981705663536
-7.7800937820309969
-7.8166635574093314
-7.8570268585355526
