-inf
-3.1880764695289828
-3.3962298333249558
-3.2092637150107535
-3.6342259164960402
-3.6879818065927085
-3.5687847631627244
-3.6335279105252707
-3.6092851775448028
-3.6158252126523435
-3.6909814375767973
-3.7148296472767953
-3.8084491772028827
-3.8716944640780942
-3.8332033557877734
-3.8623017892662218
-3.8592673195873686
-3.8828187203136278
-3.9353565469907761
-3.9739680120345296
-3.9988766325340364
-4.0034624072046446
-4.0115444382011891
-4.0585456981115597
-4.1015577060336196
-4.1203148091029522
-4.1279107332109037
-4.1408186610751427
-4.1588056741544509
-4.183623260565041
-4.2161583568941746
-4.2405449952381332
-4.2437631931524561
-4.2323199098509392
-4.2186765119755602
-4.2154762433087846
-4.2312333940704111
-4.271394120282013
-4.3302462538453735
-4.3845793391213154
-4.4088353513868012
-4.4062132060296117
-4.3977162290752481
-4.398006391692769
-4.4128810012425005
-4.4408998145947993
-4.4723147096470238
-4.4911943432119992
-4.4890431270044464
-4.475690670869434
-4.4672085156591631
-4.4733905800497594
-4.4968023376812724
-4.5344964011380473
-4.5787075474699374
-4.6182080219788815
-4.6432228748497222
-4.6524469622032524
-4.6535563702218096
-4.6564063845089771
-4.6670660902829127
-4.6857495624572915
-4.7072944463418345
-4.7239136094306561
-4.7304373077531772
-4.7285802311716507
-4.7255483588152296
-4.7291305738786983
-4.7442755382573062
-4.7718344673488701
-4.8078212166495226
-4.8431505112997553
-4.8670537690478311
-4.8756767027499935
-4.8761900717280232
-4.8795980330875756
-4.8925800193746711
-4.914952009871321
-4.9402175419638655
-4.958632067775207
-4.9641346981187961
-4.9599014086265725
-4.9551267166333997
-4.9579858454251238
-4.9722966298221706
-4.9973123340349843
-5.0282201203976967
-5.0574464934253967
-5.0782282620070477
-5.0891529362014932
-5.0946939966256245
-5.1010216076312519
-5.1120467079695903
-5.1280954798286323
-5.1462545418683665
-5.161833239882815
-5.171130576943815
-5.1742265078400582
-5.175120881419542
-5.1790731033561203
-5.1898254305987111
