-2.1501559745435472
-2.6203174919035454
-3.2674538606130697
-3.855026213100279
-4.2276610337919709
-4.4127946341302953
-4.5772216714688082
-4.7438009506490506
-4.8972490347517256
-5.0514428588212909
-5.1987342154646152
-5.3415445057827165
-5.4778026722588737
-5.607809995392289
-5.7315166407407948
-5.8496268079570129
-5.9630020154856704
-6.0726603412139306
-6.1795614657930918
-6.2845449414606264
-6.3882832289646635
-6.4912899844271474
-6.5939386215347549
-6.6964913998375456
-6.7991251903201548
-6.9019543396956004
-7.0050482243631986
-7.1084447495253171
-7.2121601666748447
-7.3161961980685276
-7.4205450832876891
-7.5251931341674686
-7.6301232045521407
-7.7353163888750816
-7.8407531728010867
-7.9464141974257878
-8.0522807522351383
-8.1583350785611093
-8.264560541718569
-8.3709417129170449
-8.4774643900985883
-8.5841155782453449
-8.6908834436462199
-8.7977572522729942
-8.9047272993407875
-9.0117848349349173
-9.118921989020818
-9.2261316980487931
-9.3334076345710351
-9.4407441407377702
-9.5481361661437908
-9.6555792102301738
-9.7630692692551837
-9.8706027877311238
-9.9781766141332998
-10.085787960650457
-10.193434366710607
-10.301113666004218
-10.408823956738655
-10.516563574844918
-10.624331069876539
-10.732125183383861
-10.839944829484096
-10.947789077480392
-11.055657136280803
-11.163548340468579
-11.271462137824041
-11.379398078249648
-11.487355803755952
-11.595335039759348
-11.703335587013924
-11.811357314683696
-11.91940015398905
-12.027464092916687
-12.135549170913365
-12.243655474624575
-12.351783134158753
-12.459932319581126
-12.568103237499508
-12.67629612904842
-12.784511266958668
