-2.1501559745435472
-2.6163613322918422
-3.2040571777018882
-3.7558307396542546
-3.9396593593712995
-4.1058252681338201
-4.2426411250687381
-4.3624143623519935
-4.4718038589922277
-4.5757129342899833
-4.6758180980165028
-4.7732629271782641
-4.8683996865976552
-4.9614076493304262
-5.0522806394439826
-5.1409687396536021
-5.2273962807989457
-5.3115014812057536
-5.3932516641784175
-5.4726552199423744
-5.5497661144283939
-5.6246823147580579
-5.6975400929910882
-5.7685048586088632
-5.8377608325316224
-5.9055006532574946
-5.9719162919096531
-6.0371917985222575
-6.1014981729042315
-6.1649902100631397
-6.2278050304359116
-6.2900618954260427
-6.3518629268126665
-6.4132943927080773
-6.4744282969966484
-6.5353240790886686
-6.5960302940715416
-6.6565861925295088
-6.7170231560987063
-6.7773659701619923
-6.83763393170465
-6.8978418003722885
-6.9580006062333986
-7.0181183301385291
-7.0782004730265565
-7.1382505298368755
-7.1982703823802433
-7.2582606239431766
-7.3182208267647489
-7.3781497619538637
-7.4380455799748666
-7.4979059585480926
-7.5577282236954093
-7.6175094487025017
-7.6772465349555745
-7.7369362779244924
-7.796575420990204
-7.8561606993354458
-7.915688875720143
-7.9751567696330455
-8.034561281038379
-8.0938994097111811
-8.1531682709688333
-8.2123651084531623
-8.2714873044917718
-8.330532388462907
-8.3894980435042256
-8.4483821118350948
-8.5071825989068313
-8.565897676547728
-8.6245256852345162
-8.6830651355900468
-8.7415147091859637
-8.7998732587086277
-8.8581398075344709
-8.9163135487488675
-8.9743938436363105
-9.0323802196648803
-9.0902723679829712
-9.1480701404484635
-9.2057735462048357
-9.2633827478266083
-9.3208980570504112
-9.3783199301172408
-9.4356489627441095
-9.4928858847605197
-9.5500315544290416
-9.607086952484643
-9.6640531759309293
-9.7209314316166308
-9.7777230296389716
-9.8344293766008355
-9.8910519687658758
-9.9475923851498171
-10.004052280574735
-10.060433378730366
-10.116737465277357
-10.172966381023123
-10.2291220152034
-10.285206298886014
-10.341221198562412
