-inf
-3.2131161354501386
-3.4680243933701814
-3.310774328123644
-3.7578809695290001
-3.8368211341598741
-3.7463119129773016
-3.8289259426161717
-3.8693041320569287
-3.8459245219160458
-3.9753634032708373
-4.0292794933171991
-4.1305387905665668
-4.2216996612111005
-4.1932897866420795
-4.2681652568827769
-4.3300641691295229
-4.3859797995744379
-4.4810870426881967
-4.5404225096627437
-4.6091689718619626
-4.6617144374700413
-4.6871493645409055
-4.7415785364488906
-4.7833577852182484
-4.8158928453534583
-4.8368874120973903
-4.8697833265590986
-4.913300491893531
-4.9531523562106548
-5.0128045966901983
-5.0799942882261285
-5.137414681556404
-5.1828941745290756
-5.2144090530070648
-5.2465235669816028
-5.2802061852271272
-5.3203584884938016
-5.3758263152940766
-5.4375101310498745
-5.4872094062954354
-5.5158745510744113
-5.5316016809669997
-5.5440776738672678
-5.5599755785647007
-5.5867388769663009
-5.6268349896189668
-5.6759832611477637
-5.7243097123903392
-5.7624936680203041
-5.7910008122672719
-5.8178772213791047
-5.8518819338867429
-5.897818543141134
-5.9536625918175955
-6.0111302613863
-6.0591599842330389
-6.0906895274302813
-6.1076238816781032
-6.1181962241832812
-6.1313143100571476
-6.152539489634244
-6.1828207523599495
-6.2193578477593208
-6.2576209574571252
-6.2935922350824345
-6.3251514346540157
-6.3527620901326064
-6.3794080469282998
-6.4092192334451358
-6.4455567798098655
-6.4894396835591277
-6.5382655873031437
-6.5851022185937461
-6.620966513791359
-6.6416999900622182
-6.6523660422787648
-6.6623991557481458
-6.6787348964084974
-6.7036495140348833
-6.7355570193501578
-6.7703592283250807
-6.8032247538013185
-6.8310347444916583
-6.8541757673131375
-6.8759416747809068
-6.9001964467701255
-6.9294043123091018
-6.9638475988617618
-7.0016574215107648
-7.0393878361810715
-7.0732470315178981
-7.1008330082742104
-7.1223774865858192
-7.1404386567909131
-7.1583321252746335
-7.1785587093676624
-7.2020047658603629
-7.2279391499167523
-7.2546252424455799
-7.2803381846100076
