-2.1501559745435472
-2.1294470820464058
-2.1605581096485703
-2.2000360505107337
-2.2395296204556955
-2.2719444669688904
-2.305378714152085
-2.339488431953127
-2.3731809380414449
-2.4069454671160262
-2.4405570527582228
-2.4744567662239
-2.5082118610437984
-2.5420819506390041
-2.5758902291049054
-2.6096175998373489
-2.6435112121370323
-2.6772091693850194
-2.7108383548734673
-2.7444886249418773
-2.7779638177659359
-2.8113158470843867
-2.8445221662670392
-2.8775438382541089
-2.9103500811049217
-2.9428841506993847
-2.9751422397096716
-3.0070714140020612
-3.038613778628166
-3.0697428086290644
-3.1004088823383044
-3.1305603667546075
-3.1601501063756837
-3.1891327709422555
-3.2174636865284576
-3.2450949655440344
-3.2719873656849001
-3.2981066365590532
-3.3234196763478918
-3.3479013604556135
-3.3715344742246316
-3.394308317155235
-3.4162193755435399
-3.437272302434922
-3.4574797418172144
-3.4768607359104728
-3.4954406109645314
-3.5132506524827697
-3.53032654862994
-3.5467073648466562
-3.5624348070342529
-3.5775522013913942
-3.5921034477070855
-3.60613225179547
-3.6196815459920008
-3.6327928705122196
-3.6455058937843627
-3.6578581477428796
-3.6698848184143156
-3.6816185932849271
-3.6930896182771238
-3.7043255275408832
-3.7153515015188863
-3.7261903573674752
-3.736862679049044
-3.7473869618578612
-3.757779758151413
-3.7680558305856689
-3.7782283075850445
-3.7883088316622487
-3.7983077002090127
-3.8082340000520125
-3.8180957331813087
-3.8278999317954555
-3.8376527639521565
-3.847359630422599
-3.8570252521286674
-3.8666537486855855
-3.8762487091180446
-3.8858132551824456
-3.8953500976565778
-3.9048615863461593
-3.9143497545036649
-3.9238163580999189
-3.9332629104366807
-3.9426907126631197
-3.9521008806398515
-3.9614943685156428
-3.9708719893999528
-3.980234433486718
-3.9895822839180085
-3.9989160306479668
-4.0082360825570338
-4.0175427780332929
-4.0268363942046252
-4.0361171549899616
-4.0453852381216777
-4.0546407812690772
-4.0638838873764123
-4.0731146293175862
-4.0823330539569659
