-inf
-2.5684411710108217
-2.7196358725786547
-2.7190371569902243
-2.7306663614085477
-2.859182180163968
-2.8065169324652313
-2.7968048327500359
-2.7996222999195204
-2.8597824261798048
-2.8474663010096121
-2.8426852511851252
-2.8350914092276482
-2.8576163681399113
-2.8612362934213608
-2.8566853929585636
-2.8567880408952021
-2.8635391598389149
-2.8685318984033108
-2.8647511495468107
-2.8656472365330689
-2.8708994237042418
-2.8741468699549694
-2.8722019580794295
-2.8717546256016908
-2.8755634183900056
-2.8794113217031608
-2.8789383701014192
-2.8782986243892261
-2.8800035083015215
-2.8835649943925006
-2.8847681245639963
-2.8847752780681436
-2.8854244139574605
-2.8877750143765438
-2.8896110074437683
-2.8905915493461443
-2.8912123590241205
-2.8927176120244982
-2.8943007892149948
-2.8957296004459133
-2.896731759496902
-2.8980096976973479
-2.8992987781244461
-2.90069539915415
-2.901904206926889
-2.9032367457723836
-2.9044584157479482
-2.9057544573552436
-2.9069680318282279
-2.9083227142548218
-2.9095865841872053
-2.9108651746133234
-2.9120529420740601
-2.9133622216482545
-2.9146436780683572
-2.9159465280928384
-2.9171483630114511
-2.9184141382842106
-2.9196735999385347
-2.920981560645658
-2.922215820780406
-2.9234720370054001
-2.9247089157786966
-2.925996959279932
-2.9272478499891838
-2.928512116812697
-2.9297460234555666
-2.9310135464212245
-2.9322625022593226
-2.9335296436779603
-2.9347707820217285
-2.9360298647790869
-2.9372734664954419
-2.9385352584909085
-2.939780807697622
-2.941038450278211
-2.9422811967853923
-2.9435368479127636
-2.9447821565472935
-2.9460383020528982
-2.9472827607385682
-2.9485352975797806
-2.949779420613933
-2.9510326868380779
-2.9522782141980327
-2.9535296187034369
-2.9547736800208389
-2.9560242633382945
-2.9572696503780072
-2.9585201056243591
-2.9597648483778147
-2.9610139033196999
-2.9622588900321595
-2.9635081072133131
-2.9647533627288217
-2.9660017303198755
-2.9672467117230638
-2.9684948360507187
-2.9697402155428986
-2.9709881125385167
