-2.3893215646260907
-1.9686444132738634
-2.1840591661677157
-2.3114285199093079
-2.4768280549255495
-2.5849891196043392
-2.666137321184809
-2.7936049578831665
-2.9350624312133468
-3.0461305885494067
-3.1423950761703613
-3.2344402054146113
-3.3398606895069514
-3.429254777164957
-3.4907207188882862
-3.6060654063310607
-3.7452864108657717
-3.8444051111130913
-3.934799411433072
-4.0079828462011042
-4.0942276910959732
-4.1607368096307555
-4.2120681829202158
-4.3183729007728215
-4.446257618104458
-4.5449601984731433
-4.6259262553228488
-4.6891487720315496
-4.7573807003937604
-4.8067070023854196
-4.8532014567808821
-4.9415581206610801
-5.0515403910595154
-5.149018304941668
-5.221414102284492
-5.2732544639242024
-5.3259193589206124
-5.3698012362308099
-5.412128463899137
-5.4778666888979361
-5.5599390035902155
-5.6407386759880103
-5.7074872629344225
-5.7582721077773006
-5.8052142823533617
-5.8490403096801274
-5.8937444766236373
-5.9488998930425771
-6.0127897732978105
-6.0792480068975957
-6.1406189128758019
-6.1938767603491757
-6.2426546360468353
-6.2890252156738412
-6.3360201601467004
-6.3873104316254344
-6.4431027447321589
-6.5012344032197226
-6.5580512081465271
-6.6115179976319064
-6.6621839824535909
-6.7112085291412387
-6.7602025211857434
-6.8108222719880096
-6.8635627425368216
-6.9177660590625655
-6.9718630986266858
-7.0246471435362246
-7.0759222802690879
-7.1261408767825461
-7.1761236730335336
-7.2267048133916764
-7.2782770848849355
-7.3306962994208707
-7.3833117898400572
-7.4354791315342483
-7.486904198320486
-7.5376846106215605
-7.5881856502305837
-7.6388342822738256
-7.6899028449914179
-7.7414139826964872
-7.7931292197633858
-7.8447387490591799
-7.8960302943794512
-7.9469790228887909
-7.9977182492363417
-8.0484506931371664
-8.0993362401149635
-8.1504269249151733
-8.2016463222847205
-8.25285640329253
-8.3039359184577867
-8.3548423116781025
-8.405616317360895
-8.4563497225225037
-8.5071302898989535
-8.558002102228303
-8.6089466531585391
-8.6599046902749579
-8.7108111834517145
