-2.4043600231590848
-0.077205059696815294
-0.16812083582347711
-0.27025766598027185
-0.37729400034412404
-0.55331802795501099
-0.80191887106438629
-0.89742701751041108
-1.0339239342245128
-1.1972788317941686
-1.3709243014082007
-1.5985921649768909
-1.6029103617437164
-1.7113393655949688
-1.7870856913397198
-1.8004094990990934
-1.8517108544760983
-1.8701148368079098
-1.8925755860627055
-1.9212064083527211
-1.9366228969525836
-1.9584758134724169
-1.9777962539823522
-1.9946004815937488
-2.0132155299222376
-2.0295651744118018
-2.0458884860035763
-2.0619432027694832
-2.0770694599199708
-2.0921018083316186
-2.1066097115480347
-2.1207083636297972
-2.1345366700457024
-2.1479664872649926
-2.161108113952027
-2.1739587684417418
-2.1865133073051424
-2.1988146196847666
-2.2108564612123191
-2.2226554329787078
-2.234225995654988
-2.245572556260899
-2.2567079437495014
-2.2676390768371115
-2.2783728777679707
-2.2889175097626117
-2.2992789777776892
-2.3094638669773232
-2.3194780944133153
-2.3293268585525388
-2.3390154167653118
-2.3485486395684056
-2.3579312703730396
-2.3671678870634224
-2.3762627538637483
-2.3852199604030347
-2.3940434390804685
-2.4027370177780647
-2.4113044455683179
-2.4197493456189805
-2.4280752091635723
-2.4362854085271284
-2.4443832256379328
-2.4523718800837446
-2.4602545279343256
-2.4680342482870677
-2.4757140343849868
-2.4832967980619505
-2.4907853850312662
-2.4981825861837922
-2.5054911377321892
-2.5127137140702717
-2.5198529221479127
-2.5269113033157289
-2.533891340221711
-2.5407954622529585
-2.5476260457062074
-2.5543854102156586
-2.5610758159598927
-2.5676994644295727
-2.574258501727453
-2.5807550213805294
-2.5871910647502149
-2.5935686196848611
-2.5998896194673003
-2.6061559433928845
-2.6123694186074392
-2.6185318218500093
-2.6246448801701124
-2.6307102708224558
-2.6367296212327488
-2.6427045096852222
-2.648636466633918
-2.6545269760488252
-2.6603774763373274
-2.6661893608747353
-2.6719639785256549
-2.6777026344744859
-2.6834065913580602
-2.6890770704471043
-2.6947152526500769
