-2.7017190269845125
-0.010588026336554421
-0.098560839768473277
-0.18910069699246203
-0.25098824905514899
-0.28250610429260588
-0.3236686356427185
-0.35381185180161953
-0.37866649238405458
-0.40197384743683243
-0.41725327558579068
-0.43060547096394668
-0.45151424730390661
-0.47982088815987682
-0.50331311951220422
-0.51335176806825727
-0.52080636971837856
-0.53889678224432762
-0.56596308698165111
-0.58990960158712151
-0.60411056781541385
-0.612290875488676
-0.62409585208394345
-0.64697611864558734
-0.67641494260460302
-0.6985787511375725
-0.70867116755376773
-0.7174575664371851
-0.73568875677097476
-0.76255953552881791
-0.78797807632768713
-0.80441069720728896
-0.81532824971162395
-0.8293458832632551
-0.85086999316493199
-0.8769927366708012
-0.90040960993064162
-0.91688062877765337
-0.92984348301923871
-0.94580827467478577
-0.96753170081063685
-0.99221371950258743
-1.0144804365655124
-1.031512633357789
-1.0457912025152419
-1.0624899769709029
-1.0846049006658752
-1.1101561431684263
-1.1334606576471652
-1.1505966526812524
-1.1639854131407072
-1.1797969033036424
-1.2015618731460392
-1.2268515847651989
-1.2492713441857782
-1.2649802950067614
-1.2773926264740911
-1.2935090925885372
-1.3166514605662584
-1.3430661190166988
-1.3648876661260982
-1.3785095927226568
-1.389216393238866
-1.4050625366528798
-1.4285205637513239
-1.4541208107477487
-1.4735248791246366
-1.485040887520961
-1.4959168271743224
-1.5138455661760668
-1.5392655736874566
-1.5648493474926053
-1.5825470876628434
-1.5929458482157668
-1.6044266674439441
-1.6234491296149791
-1.6484911601783187
-1.6716326238942135
-1.6867282639757918
-1.696659478182594
-1.7096744497066726
-1.7304388305304648
-1.7560100145006541
-1.7785671906820297
-1.7933203534880817
-1.8038617425025053
-1.8175991574220651
-1.8379174350069883
-1.8613505862208461
-1.8809435741999843
-1.8935949979027961
-1.9036609305869886
-1.9179529322516248
-1.938996657482831
-1.9629350578758222
-1.9829141941791678
-1.9960173296383319
-2.0064101534179345
-2.0203449088976893
-2.0397447349791374
-2.0605896628468941
