-2.2519368090565768
-2.4549074645754604
-2.4870885649037995
-2.551657849237388
-2.6280938468660364
-2.6704624404580359
-2.659765151086392
-2.6835024879517727
-2.7236124394521308
-2.7478140784362678
-2.7507193795029446
-2.7649902973982796
-2.7915660516081231
-2.813991345087527
-2.8181531502304661
-2.8274363467418148
-2.8496690571781593
-2.8702154174861075
-2.8798208424819677
-2.8863611825101557
-2.9026017274129635
-2.9216283759705685
-2.9352022737202765
-2.9440178687246484
-2.9559476757735604
-2.9718307957960438
-2.9866950470784796
-2.9983988669193574
-3.0097781869424415
-3.0229728675388686
-3.0368733820980722
-3.0497965146016709
-3.0620851805925396
-3.0745763928012532
-3.0873338139507555
-3.0999446739000309
-3.1125370146982444
-3.1251741328671568
-3.137673384457519
-3.1498705529740487
-3.1621079904199285
-3.1745877630490796
-3.1870891001544085
-3.1992644054823346
-3.2112434374268972
-3.2233394113978352
-3.2356090395354775
-3.2477729553024924
-3.2597126607128166
-3.2715651691888555
-3.2835086920436203
-3.2954851200126727
-3.307365765392704
-3.319115237224335
-3.3308285588821604
-3.3425542097329705
-3.3542677699614861
-3.3659105048065354
-3.3774816535712154
-3.3890058147736417
-3.4005105478599625
-3.4119867006200505
-3.4234183942808008
-3.4347903360942332
-3.4461133401139042
-3.4574009419779354
-3.4686610421360223
-3.4798796754726535
-3.491046840490587
-3.5021634967626238
-3.513243992892389
-3.5242913461302895
-3.5352990874892429
-3.546257824518161
-3.5571710390358724
-3.5680453302373037
-3.5788840105576964
-3.5896814762495763
-3.6004344115692992
-3.6111435521466299
-3.6218135582100932
-3.6324449164419276
-3.6430358873274668
-3.6535839629016853
-3.6640902797411874
-3.6745564024078016
-3.6849834326327741
-3.6953700308667946
-3.7057154389727443
-3.7160196009755873
-3.726283846957975
-3.7365085157175012
-3.7466933984570621
-3.7568376913365114
-3.7669416414748332
-3.7770057376344642
-3.7870305495820444
-3.7970157860716589
-3.8069612387801832
-3.8168668574468621
-3.8267331443622997
