-2.2519368090565768
-0.69496486924246142
-1.366161396919864
-1.6463715315138048
-1.7947521451784023
-1.8886072780969062
-1.964485044464155
-2.0291145425239681
-2.0873012987459322
-2.1409590046376552
-2.1912239689955214
-2.2388625030807919
-2.28424495460688
-2.3277687238370884
-2.3697774527891321
-2.4105044335436929
-2.4501773914568826
-2.4889820485667316
-2.5270544785875164
-2.5645112247846151
-2.6014418991201489
-2.6379126962594215
-2.6739759292203686
-2.7096703464214637
-2.7450241740260303
-2.780058509579539
-2.8147884496070533
-2.8492246582662643
-2.8833746896714837
-2.9172437019167856
-2.9508351600655714
-2.9841513734558543
-3.0171938456279995
-3.0499635719716954
-3.0824612600867152
-3.1146874846070022
-3.1466428097611731
-3.1783278792764728
-3.2097434813152398
-3.2408905977471689
-3.2717704397692449
-3.3023844732100222
-3.3327344364015704
-3.3628223518009775
-3.3926505326156045
-3.422221585371347
-3.4515384089371401
-3.4806041904698882
-3.5094223986315569
-3.5379967743326401
-3.5663313192429376
-3.5944302822913167
-3.6222981443674974
-3.6499396014474568
-3.6773595463705193
-3.7045630495030956
-3.7315553385308546
-3.7583417776237274
-3.7849278462169567
-3.8113191176462973
-3.8375212378659689
-3.8635399044646507
-3.8893808461781839
-3.9150498030782561
-3.9405525075949302
-3.9658946665081366
-3.9910819440198562
-4.016119945995317
-4.0410142054386793
-4.0657701692468589
-4.0903931862647441
-4.114888496646376
-4.1392612225099083
-4.1635163598594623
-4.1876587717343934
-4.2116931825359911
-4.235624173473157
-4.2594561790620726
-4.2831934846101048
-4.3068402246110775
-4.3304003819773666
-4.35387778803388
-4.3772761231996906
-4.4005989182847116
-4.4238495563311893
-4.4470312749327659
-4.470147168967312
-4.4932001936835024
-4.5161931680851088
-4.5391287785611045
-4.5620095827138417
-4.5848380133417009
-4.607616382536663
-4.6303468858611828
-4.6530316065724995
-4.675672519866092
-4.6982714971133487
-4.7208303100716593
-4.7433506350480564
-4.7658340570002175
-4.7882820735611057
