-2.2519368090565768
-2.2022828550401893
-2.3423955608412424
-2.4813185622672097
-2.6009952539248083
-2.8278149730955578
-2.9169118944196673
-3.0124039882680726
-3.1143761476267531
-3.2021357265604874
-3.3245363659418677
-3.4670386488125095
-3.5656257263589793
-3.6462296965244355
-3.7028550202256321
-3.7952319720464383
-3.9204533256994902
-4.0110538817959152
-4.0750777353339697
-4.11472896734608
-4.1756260983467444
-4.2694721660638007
-4.346982088246067
-4.402369408063529
-4.4410445084290755
-4.4855234887792138
-4.5493882654490355
-4.6129599478202122
-4.6650321034779295
-4.7078167228072235
-4.7494011597700852
-4.797977570870064
-4.8499067017419967
-4.8985111761163344
-4.9426143794636751
-4.984978339648297
-5.0291770513323922
-5.0753199866552854
-5.1209012856533409
-5.1646292751728556
-5.2072282055041737
-5.2501995784196065
-5.2940410027813224
-5.3379272638418501
-5.3810817293445202
-5.4235827626168946
-5.4660443692848033
-5.5088536667611661
-5.5518047863264355
-5.5945053678176045
-5.6368590592547296
-5.6790814911462
-5.7213988721104761
-5.7638098195679748
-5.8061558358562741
-5.8483417027153995
-5.8904198985719504
-5.9324970178435545
-5.9746093219655009
-6.0167069391391097
-6.0587350932843546
-6.1006964008929883
-6.142634098680371
-6.1845767518321938
-6.2265135373216666
-6.2684186447706611
-6.3102848272641699
-6.3521276185416716
-6.3939639476992398
-6.4357948930745527
-6.4776099876185133
-6.5194026548814893
-6.5611771857914134
-6.602942165296145
-6.644701031382602
-6.6864506217295196
-6.7281870976453789
-6.7699109063128996
-6.8116257641896963
-6.8533343981409508
-6.8950364734752184
-6.9367303238589875
-6.9784155880383929
-7.020093690343756
-7.0617662490987339
-7.1034336881552174
-7.1450954838318804
-7.1867513369506063
-7.2284017616260342
-7.2700476209493801
-7.3116893950442719
-7.3533270405178821
-7.394960432723808
-7.436589760385176
-7.4782154637962628
-7.5198379074605298
-7.5614572099854399
-7.6030733713436645
-7.6446864814030015
-7.6862967656788213
-7.7279044644469274
