-2.4398714215366681
-1.6225510107856524
-2.1155293048574813
-2.3771323690794599
-2.6380940628414558
-2.8761527692515896
-3.1455870566260932
-3.3927993436648776
-3.6604620427145525
-3.9112833188482228
-4.175725880269223
-4.4290201145668851
-4.6915836297496173
-4.9464171652564502
-5.2077096217630737
-5.4635028735155989
-5.7239107111225271
-5.9803587978195058
-6.2401772544322784
-6.4971020929191649
-6.7565044132613863
-7.0137727464714436
-7.2728701493492612
-7.5303904657847658
-7.7892644331149519
-8.0469724288594268
-8.305682264083611
-8.5635294756661324
-8.8221179263928802
-9.0800681119993553
-9.3385668584834513
-9.5965933470569542
-9.8550258869020385
-10.11310889544868
-10.371492514807118
-10.629617343784067
-10.887964790098216
-11.146120569924927
