-2.5558460568938771
-2.3701751923536612
-2.4186181362332094
-2.4837170086889689
-2.5198337152970344
-2.5928791896490132
-2.6466079470451846
-2.6908347813514802
-2.7329796520562697
-2.782230706632493
-2.8133237183351019
-2.8302714645356698
-2.8650915583335508
-2.899868363166772
-2.9195384791363231
-2.9474148740974136
-2.9865004329777556
-3.0215782745499345
-3.0525136300953687
-3.0843003386916014
-3.1145726578652561
-3.1438143218791671
-3.1732206938613497
-3.1998836795451945
-3.2244475191592879
-3.2523655556797505
-3.2849804180562078
-3.317104918205005
-3.3433723786153716
-3.3625052866689685
-3.3767296071373434
-3.3906548862181787
-3.4081418815538896
-3.4285959402856079
-3.4488680933284875
-3.4686864233419646
-3.4903732637236084
-3.5138448132955696
-3.536143578524534
-3.5556229648247744
-3.5734149610914288
-3.5910651572570026
-3.6093297529500848
-3.6290064162763662
-3.6514529358506554
-3.6779714879581411
-3.7082412770469513
-3.7389158351824997
-3.765029260116905
-3.7842906544702537
-3.79872928144615
-3.8114817729650919
-3.8241754516701927
-3.8373554739472546
-3.8513538606298645
-3.8663573289654763
-3.8824128129696599
-3.8993439448397872
-3.9163064889452204
-3.9318138536382447
-3.9448356383160535
-3.9559312883508338
-3.9670913095228263
-3.9805594901405492
-3.9977965615137728
-4.0190835330307557
-4.0435762253376092
-4.0695764474880251
-4.0949953212635453
-4.1180289346927412
-4.1378091864937973
-4.1546082993394879
-4.1694953934358917
-4.1837745432758225
-4.198502539959541
-4.2141647202333519
-4.2305737599068895
-4.2470618823720223
-4.2628599956702092
-4.2774161131345162
-4.2905260676306364
-4.3023359155717512
-4.3132678847454559
-4.3238669703417382
-4.3346456142128008
-4.3460482778797449
-4.3585287678114228
-4.372612078986011
-4.3888580344482056
-4.4077454438499384
-4.4295073177805492
-4.4539151521340986
-4.4800489394016464
-4.5062049780143658
-4.5301759006211413
-4.550013480638371
-4.5649649086291643
-4.5759069950912935
-4.5848972148100064
-4.5942025294575131
-4.6054352367582422
