-2.7017190269845125
-2.68939053210267
-2.739484454688925
-2.8012684605747749
-2.8278866090984609
-2.8372938785915313
-2.8823091353292172
-2.9143145131287893
-2.9329192562701989
-2.9545984197137781
-2.9695436245669291
-2.9905927201982947
-3.008293107424693
-3.0194242921460332
-3.0286144816900979
-3.0432876572829169
-3.0572050324641286
-3.0671711067860983
-3.0776833182120976
-3.0900831107222154
-3.0993586867778734
-3.1047696866261309
-3.1123573109758245
-3.1250998098844616
-3.1391413532918368
-3.1508567510342141
-3.1599286041254248
-3.1682229828778927
-3.1765100588138863
-3.1852380028612067
-3.1943911543468169
-3.2029981934215593
-3.2087939230393133
-3.211559728647117
-3.2143084710381194
-3.2204204616086798
-3.2297783729943193
-3.2396836083297994
-3.2481840252357457
-3.2558717010363522
-3.2639547835129901
-3.2724045631136253
-3.2800522696353208
-3.2859578510958234
-3.2899287992019804
-3.2923047727096722
-3.2939948932570317
-3.2964776270338601
-3.3007588574203599
-3.3063850162825264
-3.3119975626988059
-3.3169586101624236
-3.3218029121966868
-3.3269954836052111
-3.3319586293209475
-3.3357983683744598
-3.3386023038372914
-3.3414383209708515
-3.3451367253850037
-3.3494482848009358
-3.3533336504832067
-3.3558510545869302
-3.3568367269113789
-3.3570282423393521
-3.3576706329201197
-3.3598451427526962
-3.3638911759168692
-3.3692836171592548
-3.3750315679547735
-3.3802799733927368
-3.3846647362377435
-3.3882766290076508
-3.391451676683809
-3.3946019545424088
-3.3980805474579013
-3.4020339303511778
-3.4063160530229911
-3.4105657843348506
-3.4144163064995455
-3.4176829553889467
-3.420407613856521
-3.4227779569549255
-3.4250208410282049
-3.4273236421613301
-3.4297643480197621
-3.4322442673971611
-3.4344910949368248
-3.4362066894562818
-3.4373075717217218
-3.4380636449968061
-3.4389799028380392
-3.4404903748309602
-3.4427005228488533
-3.4453559824262328
-3.4480257045621958
-3.4503491713488074
-3.4521961653988069
-3.4536821010157661
-3.45507174250624
-3.4566367546343399
-3.458531307670557
