-2.0993904024942814
-1.9190651848896414
-2.1924567811534827
-2.4110105181153957
-2.6525916579072266
-2.8668655177534991
-3.1042063141184324
-3.3122274639110209
-3.5455121161016549
-3.7569165745609141
-3.9879849312686103
-4.1992072935861542
-4.431013052781523
-4.6420495605500505
-4.8739804667704884
-5.0844641000945017
-5.3160317255686275
-5.5265073175286574
-5.7581902794005519
-5.9685301960694231
-6.2004715573228144
-6.4101524051396333
-6.6424561298217673
-6.8513933315909126
-7.0839305659150472
-7.2923539735359644
-7.525071558719198
-7.7328604998771841
-7.9658047753961925
-8.1727395891473274
-8.4058573916153936
-8.6119357644795105
-8.8450579695270571
-9.0502955024491353
-9.2832798658896129
-9.487565601482444
-9.7202678345875347
-9.9234992697916684
-10.155681946144863
-10.35782200855493
-10.589179012777172
-10.790178411578395
-11.020381523605853
