-2.4043600231590848
-1.4816175871139308
-1.6806062163547642
-1.9004372570322569
-2.120213201391982
-2.3019467162408113
-2.4927855137947512
-2.6722058074159117
-2.8037883035439416
-2.9624214324519534
-3.1264398233495194
-3.2726533321251059
-3.3979652152131683
-3.5165578346129488
-3.6314762401022892
-3.7258062316657999
-3.8128684546669649
-3.9020785970940726
-3.9903213463898399
-4.0726298640050414
-4.1588458957356101
-4.2622794513949158
-4.3818551521858389
-4.5047257691633759
-4.6235041056839793
-4.7417696688947194
-4.8545768217163794
-4.9484235043642345
-5.0304065031122411
-5.1218447007489249
-5.2282872592803012
-5.3387325006732903
-5.446198180672782
-5.5543477117540791
-5.6604555252142558
-5.7557169857465586
-5.8473767424740255
-5.953256452156552
-6.0773019103681776
-6.20597250117017
-6.3280398325366374
-6.4460836599601871
-6.5544475569974851
-6.6372399351474616
-6.7045013169493053
-6.7820735568803024
-6.8774386322872222
-6.9821351068432257
-7.0914465810275789
-7.2094647916730241
-7.3328433023431145
-7.446421505703378
-7.5483613697065448
-7.6565069396504852
-7.7783579753489936
-7.9000247979567902
-8.0098305719227858
-8.1147183027411187
-8.2151590508993617
-8.2978525015640287
-8.3677362695898683
-8.4462215722922096
-8.5409537527126954
-8.6444822470549448
-8.7527225261408175
-8.8713069780554522
-8.9996413408639972
-9.1224229345024907
-9.2318804240325403
-9.3426774700205931
-9.4635563144894205
-9.5798741069753738
-9.6787271573146017
-9.7705561850897596
-9.8622962863444667
-9.9457277467161787
-10.02295320666919
-10.110020405451057
-10.213243354737053
-10.323818229486883
-10.434732818783682
-10.551213237961365
-10.6747961485568
-10.791718475373086
-10.894617485507254
-10.998852329820678
-11.11513809467296
