-2.2519368090565768
-2.2993328406214147
-2.410748669099765
-2.5041962272994311
-2.5951321941204114
-2.7537453141814263
-2.7779916279610833
-2.8355424287106674
-2.8997715962701701
-2.988441484282404
-3.0541426125602084
-3.1142177485732012
-3.1678481176988254
-3.2328566503943385
-3.2895680129458626
-3.3410898414159722
-3.4006215844385569
-3.4571113992225654
-3.511580786186297
-3.5536673091660512
-3.6003755842623995
-3.6559154716671267
-3.7093949730123285
-3.7550126224860078
-3.7933285404343418
-3.8359395622841175
-3.8850770416757914
-3.9325405313649538
-3.9737098456933835
-4.0102715099450254
-4.0483189893566015
-4.0899362312924317
-4.1312597468506284
-4.1689178354844959
-4.2034707787998636
-4.2376883307845728
-4.2733061140475801
-4.3090400039469444
-4.3430328317496143
-4.3750221477158501
-4.4062273036165774
-4.4376935176889356
-4.4691924229846344
-4.4998186059650424
-4.529271334565476
-4.5580141354980247
-4.5866389831943132
-4.6151667049110286
-4.6432199281592548
-4.6705783641113818
-4.6974222632794464
-4.7240489259162071
-4.7505450520154547
-4.7767591372535212
-4.8025682445855547
-4.8280222017681097
-4.8532699106118479
-4.8783839264313862
-4.9033224104639442
-4.9280210274442051
-4.9524887672978645
-4.9767901639553907
-5.0009751043505849
-5.02503898578682
-5.0489566586514338
-5.0727257168498127
-5.0963739300586087
-5.1199286182728749
-5.143396136534705
-5.1667682814980645
-5.1900436481035262
-5.213233741860323
-5.2363534224850206
-5.259409038755711
-5.2823995500569536
-5.3053246087300268
-5.3281897124983246
-5.3510026777976505
-5.373768508300203
-5.3964882041015343
-5.4191623205890686
-5.4417935919032345
-5.4643863682123041
-5.4869440486886037
-5.5094681932715849
-5.5319596210299745
-5.5544199526753788
-5.576851613988817
-5.5992568734788089
-5.6216371303122392
-5.6439932844111354
-5.6663264037129036
-5.6886379524935799
-5.7109293940523832
-5.7332018406179965
-5.7554560862241667
-5.7776929252779498
-5.7999132977327807
-5.8221181803258139
-5.844308395512599
-5.8664845974167945
