-2.5481769654169897
-2.5265782228642012
-2.5688011825190333
-2.6268675451571803
-2.6784930590090621
-2.7301897588591381
-2.7752348693990966
-2.8138827188732034
-2.8424352564750019
-2.8677834187165956
-2.8882975367811083
-2.923785992532186
-2.9544737387482483
-2.9695939608163483
-2.981018111405298
-2.9989795689736023
-3.0210345429570407
-3.0412998405765685
-3.0587257877447093
-3.0733600520343952
-3.0868660608017423
-3.1002198414703768
-3.112920599088398
-3.1239809721646592
-3.1322409841274419
-3.140675813826867
-3.1499377688800941
-3.1572718673068619
-3.1632291016913548
-3.1701585298880037
-3.1791519744442657
-3.1898354897920888
-3.2009326866741618
-3.2113207596565398
-3.2216354448017677
-3.233481952402537
-3.2467972879678168
-3.2595202197434776
-3.2697243364516161
-3.2769204319446341
-3.2818404905446807
-3.2856562971968925
-3.2893670588214461
-3.2938332902336776
-3.2998147871315723
-3.3074604300467047
-3.3160267778715463
-3.3246574845969116
-3.3333245013854052
-3.3426518641724129
-3.3531249892922597
-3.3646218884866091
-3.3764081797006241
-3.3873812138795593
-3.3964889857628838
-3.4032515313857088
-3.4080749989143946
-3.4120384504277889
-3.4162960693965908
-3.4215536431471412
-3.4278907343687747
-3.4349380028809188
-3.4422834817009627
-3.4498470541100902
-3.4579462263331667
-3.4670159309832184
-3.477231418783938
-3.4882975566878689
-3.4994770359112149
-3.5098027548752835
-3.5184119313270392
-3.5248977632856927
-3.529492141796307
-3.5329509656321865
-3.5362244699869435
-3.5401224505407685
-3.5451204440757298
-3.5513303175959693
-3.5585949785052022
-3.5666520857379938
-3.5752980987547398
-3.5844683718596114
-3.5941740492399024
-3.6043223950169632
-3.614544805377217
-3.6241866979176087
-3.6325318093427349
-3.639161178058874
-3.6442013794889953
-3.6482646570817759
-3.6521260855311233
-3.6563798994849355
-3.6612880957128227
-3.6668588712359461
-3.6730386567607228
-3.6798564814591478
-3.6874263233917122
-3.6958306875108144
-3.7049852124295502
-3.7145762468895986
-3.7241043988666093
