-2.4043600231590848
-0.73583053080047166
-0.84866239332178218
-1.1329683642102132
-1.2971109656256732
-1.4776782284890505
-1.6434872156513921
-1.818621833548478
-1.9603853397952875
-2.0703027002693561
-2.1978135463921103
-2.2678012362055451
-2.3232356310040867
-2.3725768002625049
-2.4152008215256889
-2.4480759832484079
-2.4811055909767254
-2.5137223573282405
-2.5421561645851534
-2.5699982310026614
-2.5976392083328652
-2.6243510086450367
-2.6505631434673535
-2.6762664926723935
-2.70116108483685
-2.72536371644943
-2.7490959801233558
-2.7724562897418315
-2.795501271377867
-2.8182268000062648
-2.8405983880241139
-2.8626266918124356
-2.8843580880954628
-2.9058350361008874
-2.9270835056358178
-2.9481157022890576
-2.9689403618657056
-2.9895719287457402
-3.010028956996842
-3.0303275213573068
-3.0504776925720461
-3.070484517249691
-3.0903520496209882
-3.1100869694004831
-3.1296987736163095
-3.1491972234923623
-3.1685897765210665
-3.1878807679665176
-3.2070724212407532
-3.226166561278321
-3.2451657152718698
-3.2640731807870089
-3.282892496133254
-3.3016268207082447
-3.3202785181327705
-3.3388491198367356
-3.3573396351560485
-3.3757509241774198
-3.3940838832283917
-3.4123394395190129
-3.4305184819516702
-3.4486218084554596
-3.4666501000791208
-3.4846039063473489
-3.5024836266181791
-3.5202894926524284
-3.5380215832390278
-3.555679894428007
-3.5732644420636116
-3.5907753322626983
-3.6082127479019279
-3.6255768607168014
-3.6428677357982214
-3.6600852989933739
-3.6772293879962204
-3.6942998477302662
-3.7112966050750922
-3.7282196804258331
-3.7450691414667388
-3.761845041058763
-3.7785473833182567
-3.7951761346754493
-3.8117312643325387
-3.828212783861273
-3.8446207639980518
-3.8609553263890369
-3.8772166232835037
-3.8934048209075426
-3.9095200949183765
-3.9255626367758172
-3.9415326644974919
-3.9574304315404869
-3.9732562308856367
-3.9890103945230794
-4.004693290003451
-4.0203053159472247
-4.0358468982425833
-4.0513184883293691
-4.0667205641779685
-4.0820536332888232
-4.0973182358649012
