-2.4043600231590848
-2.4638647201402012
-2.4484366636476491
-2.571796302004095
-2.66039706784526
-2.699805066579883
-2.7374094692015149
-2.7494135528762801
-2.7901216772540911
-2.8471788127814528
-2.8722283522886368
-2.883576532085709
-2.8977615304763595
-2.9150538931999185
-2.9352924430196779
-2.9522475152478907
-2.9593862819787529
-2.9720787307614788
-2.9968172225986375
-3.0223976979202992
-3.0394020738175648
-3.0546580549842616
-3.0750497674885271
-3.0887063261997187
-3.0948312705493016
-3.102659804868741
-3.1150787793359639
-3.1291294217542058
-3.1413510514280194
-3.1521428161576339
-3.1663457732260686
-3.187797697844643
-3.2094376501204051
-3.2214914298324287
-3.2266480324985238
-3.2339449995676754
-3.2465661306405787
-3.2602810646628868
-3.270509601683901
-3.2785220442248424
-3.2901459689345051
-3.3077328221265844
-3.3264453772356108
-3.3404273307756763
-3.349552321128246
-3.3579577712141947
-3.3686443063544453
-3.3808901116637611
-3.3917152452760335
-3.4001372591958192
-3.4089440445165698
-3.4209841487230167
-3.4357324285190763
-3.4501118744585321
-3.461749875608531
-3.471118853070715
-3.4804677232218104
-3.4910741772457434
-3.5021751114867532
-3.5125317486435368
-3.5222009793362678
-3.5323552186806249
-3.5438353438462489
-3.5561594068131334
-3.5678928253700659
-3.5780997978816534
-3.5872884177658297
-3.596645510854485
-3.6066655049340966
-3.6168828019789856
-3.6267638446419334
-3.6365081193335708
-3.6467790386501626
-3.6577658912720643
-3.6688082557579745
-3.679073289517086
-3.6884289706873499
-3.6974552620161976
-3.7067145898856635
-3.7162373971254354
-3.7257279344347198
-3.7350992526522039
-3.7446234095627807
-3.7545384745635441
-3.7646725038698153
-3.7745738225250742
-3.7839596424291484
-3.7929398203204636
-3.8018144195545235
-3.8107629054348667
-3.8197893888197853
-3.828893900280265
-3.8381642378230116
-3.8476569597469536
-3.8572571989018679
-3.8667215010912455
-3.8758578207745147
-3.8846431637211508
-3.893180014692112
-3.9015865770569949
-3.9099631020137252
