-2.5558460568938771
-2.2818620683422206
-2.3333262105506562
-2.4055895800121537
-2.4463849879332758
-2.5225370425552116
-2.5810539836119473
-2.6306965906796887
-2.6756022728219411
-2.7285857714270975
-2.7656896844315156
-2.7868015561128957
-2.8247899342755722
-2.8646487929286879
-2.8893162160185575
-2.9206165335319572
-2.963394037564804
-3.0026431952430044
-3.0367869214027554
-3.0716174126333537
-3.1067628703199587
-3.1422733757022435
-3.1780098748629661
-3.2114194214944682
-3.2430531705027537
-3.2769106863878219
-3.3141293344307788
-3.3505587445026693
-3.3809318728956335
-3.4035897252089051
-3.4212037399173634
-3.4387346562882343
-3.4601103720483569
-3.4851716307610585
-3.5107569735298924
-3.535561920549586
-3.5611657050278082
-3.5876798438654532
-3.6125041686238806
-3.6342625987070382
-3.6544730189746164
-3.6748595085114962
-3.6960768632880327
-3.7190380626226781
-3.7454449083810403
-3.7767523906879474
-3.8126815587281101
-3.8499835410554641
-3.8832761762732831
-3.9090387149296585
-3.9283540783099787
-3.944492179750664
-3.959730513828136
-3.9751535159531945
-3.9914063168126768
-4.0088466069003905
-4.0276738768217656
-4.0478871596223123
-4.0686457958055256
-4.0880446135726492
-4.1043112162356943
-4.117410821386634
-4.1292459629768743
-4.142450328487475
-4.1591474612418719
-4.1803739328055734
-4.2060034840548235
-4.2349065529787816
-4.2652627557927349
-4.295048161938252
-4.3226361456026312
-4.3472581878219835
-4.3690744369640213
-4.3888775760598021
-4.4076489584469709
-4.4261604113361588
-4.4447571687704361
-4.4633835847944937
-4.48175723870237
-4.4995177311002061
-4.5162993742457489
-4.5318054494956293
-4.5459011698501207
-4.5586543391676126
-4.5703265080817316
-4.5813983061288215
-4.5926247583748797
-4.6050136683916572
-4.6196822717498668
-4.6376605560970498
-4.6597038698668069
-4.686098262814637
-4.7164227869925047
-4.7493094579205213
-4.7823748884712165
-4.8126102232984789
-4.8373965577146487
-4.8557477866926897
-4.8688338284123569
-4.8792868596953531
-4.8898927774723966
