-2.0993904024942814
-2.0714695176484389
-2.3202016981895847
-2.6310656718946131
-2.8947102641991662
-3.0885830347086288
-3.213792957115653
-3.3123461086046665
-3.4075365469702445
-3.491508907450512
-3.5696271613745732
-3.6485207624833842
-3.7289578926293502
-3.807847034409152
-3.8868833081181011
-3.9655037060857072
-4.0462226065717262
-4.1258519739560659
-4.2043910183597716
-4.2841597218265265
-4.3634956266513975
-4.4418582080120694
-4.5199559174494733
-4.5978610566001419
-4.6751726887213011
-4.751610457086974
-4.8275323242810422
-4.902996012776471
-4.9776000908416504
-5.0514405230041283
-5.1246877492425853
-5.1972146253939763
-5.268956037078161
-5.3399832970002321
-5.4103482803489023
-5.480010855258344
-5.548967720356529
-5.6172889167428523
-5.684996057177518
-5.7520869265266076
-5.8186008926189583
-5.8845810606771139
-5.9500499659521161
-6.0150319855302915
-6.0795640997255469
-6.1436800315721081
-6.2074044156818031
-6.2707652100005658
-6.333793194222997
-6.3965139693495249
-6.4589505403960099
-6.5211268561837705
-6.5830655492910279
-6.644786344023211
-6.7063076464176625
-6.7676473186888886
-6.8288215580870449
-6.889844802673555
-6.9507305788925899
-7.011491449890155
-7.0721386819065038
-7.1326824898007725
-7.193132306109707
-7.2534967174073919
-7.3137834441505293
-7.3739995085610414
-7.4341513267028009
-7.4942446957800924
-7.5542848478459795
-7.6142765401388734
-7.6742240905035796
-7.7341313981815318
-7.7940019925388104
-7.8538390781093766
-7.9136455579822361
-7.9734240586240006
-8.0331769621981262
-8.0929064312946583
-8.1526144266641264
-8.2123027270610116
-8.2719729489287588
-8.3316265615609566
-8.3912649003376333
-8.4508891802792794
-8.510500508152437
-8.5700998924346405
-8.6296882525775659
-8.6892664278337018
-8.7488351849167117
-8.8083952246850693
-8.8679471883774972
-8.9274916633051664
-8.9870291878313058
-9.0465602558521957
-9.1060853209189022
-9.165604799943895
-9.2251190764868866
-9.2846285037532241
-9.344133407312972
-9.4036340875424438
-9.4631308218261448
