-2.7017190269845125
-1.9387388894040422
-2.0266986218106178
-2.0960148208777184
-2.1686765255053501
-2.2180752828917958
-2.3108435215153393
-2.3766095060948228
-2.4237743053477451
-2.477627040748853
-2.5273783506886239
-2.5774217251509568
-2.6291983495259677
-2.6739530590293569
-2.7124071389655248
-2.7533287170772451
-2.7953451350896138
-2.8342212658598724
-2.8721774046894223
-2.9092508067593606
-2.9444988694268142
-2.979780875263473
-3.0177651146239979
-3.0590302129148285
-3.1012277458403157
-3.1410682815873899
-3.1770005769984603
-3.210177793373763
-3.2431435452918851
-3.2777112416365826
-3.3139891851985253
-3.3510109589240556
-3.3879652854324682
-3.4256799274139529
-3.4665308048393215
-3.5118313478932737
-3.5596284910464037
-3.606282814773001
-3.6505901203053498
-3.6947523315550373
-3.7403380222892384
-3.7848548593136546
-3.8239082675841351
-3.8568324247266158
-3.8879421969276731
-3.9215221359863698
-3.9574476100187186
-3.9917595748858981
-4.0211543543635822
-4.046834771461382
-4.0734064036800172
-4.1048097562135823
-4.1418053369559336
-4.1820509330647994
-4.2218784250191645
-4.2587389467389236
-4.2926026404098288
-4.3249927350223752
-4.3567753703487844
-4.3870732989016081
-4.4142760809584349
-4.4379511135730059
-4.4594851133106902
-4.4808664063941264
-4.5032409275301102
-4.5267202279777827
-4.5512642940689774
-4.5774657868259757
-4.6063950323734628
-4.6387663469060412
-4.6743094975462643
-4.7119158142526176
-4.7504389935330348
-4.789478095958091
-4.829449819151101
-4.8709146529130939
-4.9137871430955662
-4.9570558082744621
-4.9991637748681971
-5.0387088848396234
-5.0748869466392061
-5.1073836387805978
-5.1360428840198239
-5.1608619917173111
-5.1823713205940308
-5.2018757016158191
-5.2211324797218143
-5.2416687154066822
-5.2642680952230037
-5.2889216020201194
-5.3151539611934035
-5.3424275999511608
-5.3703433838826933
-5.3985686102379825
-5.4266657924256222
-5.4540505483825407
-5.4801349752828794
-5.5045043391908717
-5.5269536758819007
-5.547398025697245
-5.5658341876352972
