-2.4043600231590848
-2.4748656780851823
-2.4538380949735717
-2.5671756462194407
-2.653074098743895
-2.6819440138493596
-2.7100987480376774
-2.7144343669419888
-2.7476649952098261
-2.792264324779326
-2.8037850109655057
-2.8015047241231181
-2.8061663237466458
-2.8153399869466068
-2.8263547344058638
-2.8313940825304485
-2.8285091847700633
-2.8335475332964862
-2.8494156505508404
-2.8632455429283943
-2.8674251094609578
-2.8692825117699873
-2.8757239051392813
-2.8783122559705438
-2.8762573579729861
-2.8751691403777529
-2.8776552687531818
-2.8825211227265595
-2.8870816903349441
-2.8901509029113741
-2.8940246774850894
-2.9008900875673783
-2.906643892783437
-2.9065812730107587
-2.9032802175696116
-2.9020031607992072
-2.904335499816068
-2.9078003164899446
-2.9100104213576178
-2.9115733603083331
-2.9148617115974528
-2.9198851764616586
-2.923564410043282
-2.9239501157197139
-2.9224874409847815
-2.9216714598524921
-2.9224900770620548
-2.9242221994551627
-2.925842010461993
-2.927427588593761
-2.9298322471022425
-2.9330068732346373
-2.9356500706796704
-2.9366192327397083
-2.9360599603855378
-2.9350784196049257
-2.9347175992532632
-2.9353328264662807
-2.936733990321
-2.9386677879341805
-2.9409567040593809
-2.9433135667855485
-2.9452974202660023
-2.9464876200530503
-2.946710703908379
-2.9462076077394024
-2.9455719040735259
-2.9454107821436153
-2.946020526506485
-2.947336973243599
-2.9491004914535114
-2.9510208274906832
-2.9528086403155324
-2.9541484603277941
-2.9547932609585214
-2.9547657654852683
-2.9544159730505905
-2.954216278175942
-2.9544886846270953
-2.9552978937011223
-2.9565286053041216
-2.9579984263460424
-2.9594912344497433
-2.9607536834767352
-2.9615651993793851
-2.9618696188839698
-2.9618312500988033
-2.9617441017242972
-2.9618779844787035
-2.9623822735884974
-2.9632765095156455
-2.9644743500714859
-2.9658012124711525
-2.9670289272195224
-2.9679562925005348
-2.9685000841237685
-2.9687266927644691
-2.9688043821353748
-2.968922809200375
-2.9692332824445059
-2.9698212806300673
