-2.7017190269845125
-0.73008565839218064
-0.87165899225372107
-0.96940904230136697
-1.0463832893839096
-1.0937241265946246
-1.11487188701272
-1.1307209599077121
-1.1594932188805078
-1.2022929334921387
-1.2495829539802681
-1.2884427736187646
-1.3082078134425887
-1.3135246193637024
-1.3227369567017731
-1.348192312750309
-1.3872748229486705
-1.4261013800160576
-1.4511277232615793
-1.4612917499362868
-1.4670667162610735
-1.4798206667516988
-1.5049048665204741
-1.5399100267171073
-1.575528913182488
-1.6013334360505634
-1.6154589811962172
-1.6261068729217075
-1.6425620090568402
-1.6682270165580193
-1.6997011573655689
-1.729500161399912
-1.7515836484224581
-1.7662914900283501
-1.779265663688679
-1.796244774967533
-1.8195694734206658
-1.8476482313473354
-1.8762523451406246
-1.9011845058087443
-1.9211814067916236
-1.9385667746579753
-1.9570585356371147
-1.9791061841053663
-2.0046354599228179
-2.0312837508149787
-2.0558042889451772
-2.0761830390698701
-2.0931464517420055
-2.1096963889541784
-2.1291040760180011
-2.1529821716474557
-2.1803740623561508
-2.2081098941450573
-2.2326226214021168
-2.2525576524175865
-2.2699421030211485
-2.2885483759984196
-2.3110562829054814
-2.3371993438927564
-2.3637336593367179
-2.3864959741750929
-2.4037838409932557
-2.4180824715050059
-2.4341268787257061
-2.4554485870473826
-2.4822068014743881
-2.5109946719687057
-2.5367699196654496
-2.5565579244443587
-2.5719975272172777
-2.5877579404519767
-2.6076489139427514
-2.6319962678786222
-2.6574349211229267
-2.6791488402534803
-2.6947629461556512
-2.7065786363279818
-2.7195947948752147
-2.7376934505696295
-2.7613125288879174
-2.7872871159735482
-2.8107301293153838
-2.8285188997963202
-2.8417825257099115
-2.854634741884789
-2.870638777425453
-2.8903443989687185
-2.9110917460757582
-2.9289291679835682
-2.9417511174463046
-2.9511305282409686
-2.9609443861492136
-2.9744085264246556
-2.9921239406470701
-3.0119117859327552
-3.030242940918701
-3.0446759907193077
-3.0555965537629662
-3.0655867372239979
-3.07714839309482
