-2.2519368090565768
-1.7890610206094669
-2.0779975024386759
-2.3214473119349864
-2.5079405014920096
-2.8367878815916591
-3.1467378000899678
-3.3876574064713935
-3.6140000514904196
-3.7820995934188676
-3.887079180707914
-4.1719114017109502
-4.422199882815027
-4.5817565732561706
-4.833547740522069
-4.912618466613087
-5.0592171712254478
-5.3636910203615435
-5.546803022058731
-5.7132862672063588
-5.9615705254923165
-6.0138396608973091
-6.146183267842356
-6.4269862724097504
-6.6620183278180646
-6.8270411336295534
-6.9915089272866924
-7.0781019339325771
-7.2220106053474983
-7.4455570857155589
-7.6495517968926169
-7.8168232729578621
-7.9478066228435313
-8.0568030037375517
-8.2133002224254309
-8.4115316576374244
-8.5950587316223081
-8.7538375483338599
-8.8901203553443769
-9.0184398245242111
-9.1716637286782391
-9.3484137730523471
-9.5212332029671503
-9.6778323690614965
-9.8205776816616178
-9.9625943236765877
-10.117623974081448
-10.283286286693045
-10.44672567198209
-10.601252006606617
-10.748351911714053
-10.896324111418574
-11.051958659854858
