  -1.5496570e+00
  -1.6573918e+00
  -1.7240509e+00
  -1.7680210e+00
  -1.7994805e+00
  -1.8228735e+00
  -1.8418215e+00
  -1.8578390e+00
  -1.8720695e+00
  -1.8846225e+00
  -1.8958750e+00
  -1.9061232e+00
  -1.9154952e+00
  -1.9240773e+00
  -1.9319181e+00
  -1.9390794e+00
  -1.9456321e+00
  -1.9517019e+00
  -1.9574284e+00
  -1.9629402e+00
  -1.9683129e+00
  -1.9735648e+00
  -1.9786825e+00
  -1.9836521e+00
  -1.9884422e+00
  -1.9930465e+00
  -1.9974581e+00
  -2.0016661e+00
  -2.0056877e+00
  -2.0095395e+00
  -2.0132457e+00
  -2.0168317e+00
  -2.0203233e+00
  -2.0237454e+00
  -2.0271199e+00
  -2.0304611e+00
  -2.0337738e+00
  -2.0370533e+00
  -2.0402881e+00
  -2.0434608e+00
  -2.0465535e+00
  -2.0495514e+00
  -2.0524452e+00
  -2.0552356e+00
  -2.0579339e+00
  -2.0605581e+00
  -2.0631315e+00
  -2.0656768e+00
  -2.0682102e+00
  -2.0707390e+00
  -2.0732610e+00
  -2.0757652e+00
  -2.0782366e+00
  -2.0806598e+00
  -2.0830221e+00
  -2.0853163e+00
  -2.0875446e+00
  -2.0897118e+00
  -2.0918304e+00
  -2.0939124e+00
  -2.0959692e+00
  -2.0980091e+00
  -2.1000368e+00
  -2.1020520e+00
  -2.1040518e+00
  -2.1060303e+00
  -2.1079806e+00
  -2.1098966e+00
  -2.1117739e+00
  -2.1136102e+00
  -2.1154074e+00
  -2.1171671e+00
  -2.1188962e+00
  -2.1205990e+00
  -2.1222820e+00
  -2.1239497e+00
  -2.1256034e+00
  -2.1272437e+00
  -2.1288692e+00
  -2.1304767e+00
  -2.1320631e+00
  -2.1336246e+00
  -2.1351598e+00
  -2.1366670e+00
  -2.1381479e+00
  -2.1396039e+00
  -2.1410377e+00
  -2.1424534e+00
  -2.1438538e+00
  -2.1452405e+00
  -2.1466145e+00
  -2.1479765e+00
  -2.1493250e+00
  -2.1506586e+00
  -2.1519748e+00
  -2.1532733e+00
  -2.1545522e+00
  -2.1558118e+00
  -2.1570533e+00
  -2.1582777e+00
