-1.4293240158289136 -inf -1.4293240158289136
-1.5496565601126811 -4.0077987707040191 -1.549659193244054
-1.6573913574867644 -3.5019125918001684 -1.6574357956688791
-1.7240498936491476 -3.4790528007207535 -1.7241170080340313
-1.7680221169899262 -3.4642719602738101 -1.768110088611573
-1.7994793397269485 -3.4744769999930311 -1.7995763585518945
-1.8228748204275344 -3.4865772609312555 -1.8229770206004967
-1.8418218568448182 -3.4996012476839602 -1.8419268837471632
-1.8578404468561847 -3.5115067044453876 -1.8579474826000952
-1.8720685936148783 -3.5221918495818024 -1.8721773905336901
-1.8846232042369934 -3.5327231537079361 -1.8847330198847692
-1.8958756049160993 -3.5419493810194254 -1.8959864502980197
-1.9061215579007364 -3.5500228546959309 -1.9062335181037893
-1.9154959184852908 -3.5573672464386364 -1.9156089305128879
-1.9240757864999423 -3.5643160808409426 -1.924189650801434
-1.9319197233678006 -3.5709844314396812 -1.9320342059395852
-1.9390800507348509 -3.5774235736888283 -1.939194914256717
-1.9456326943671133 -3.5836534458912364 -1.945747728796333
-1.9517010327518867 -3.58963381654321 -1.9518161138040815
-1.9574291280303862 -3.5953062013869195 -1.9575442386189348
-1.962940834986784 -3.6006810655074157 -1.9630560181583575
-1.9683113410486663 -3.6058650356734325 -1.968426623234779
-1.9735632754343136 -3.610976809773843 -1.9736786320744872
-1.9786843801725959 -3.6160679480628978 -1.9787997527373834
-1.9836513544116945 -3.621126780927016 -1.9837666781684109
-1.9884441367615672 -3.6261211714325565 -1.9885593534684019
-1.9930485688027641 -3.6310121109137078 -1.993163633550874
-1.9974560898514064 -3.6357460904257973 -1.9975709816957765
-2.001665917208636 -3.6402690924457812 -2.0017806434290712
-2.0056874983605741 -3.6445600788173824 -2.0058020822958554
-2.0095394612801821 -3.6486455979536333 -2.0096539220066485
-2.013245621790662 -3.6525799999454422 -2.0133599622400464
-2.0168315442444819 -3.6564145992096656 -2.016945753791822
-2.0203231158622342 -3.6601826024896203 -2.0204371800734593
-2.0237453739434455 -3.6639025764838762 -2.0238592818350957
-2.027119825513519 -3.6675871293200089 -2.0272335708103426
-2.0304609079167456 -3.671246759577174 -2.0305744864316793
-2.0337735979901451 -3.674888355107103 -2.0338870045569332
-2.0370533362707129 -3.6785120918601887 -2.0371665632774665
-2.0402879425483503 -3.6821095969129096 -2.040400980437739
-2.0434606142793518 -3.6856644609385356 -2.0435734533385361
-2.0465534367881629 -3.689155218817169 -2.0466660691987573
-2.0495512004668709 -3.6925602502923035 -2.0496636217744891
-2.0524451474896235 -3.6958633714709916 -2.0525573571046711
-2.0552357858837858 -3.6990585513967077 -2.0553477865950055
-2.0579337185588419 -3.7021524124820046 -2.0580455151907108
-2.0605578812889866 -3.7051637404737779 -2.0606694787181274
-2.0631314787247419 -3.7081198900571965 -2.0632428796733945
-2.065676753676292 -3.7110507022578725 -2.0657879569613698
-2.068210109423072 -3.7139813384792694 -2.0683211093908622
-2.0707389198727408 -3.7169260314739934 -2.0708497074015516
-2.0732607660338185 -3.7198847532171469 -2.073371330838075
-2.0757650957956728 -3.7228439909044176 -2.0758754291582357
-2.0782366618733469 -3.7257814284869153 -2.0783467587185627
-2.0806597099209516 -3.7286729431870031 -2.0807695694426797
-2.0830218246308406 -3.7314995706493733 -2.0831314493373563
-2.085316563785822 -3.7342522736913262 -2.0854259574790953
-2.0875444188389226 -3.7369333099939016 -2.0876535844108267
-2.089712103355914 -3.739554253684976 -2.0898210412431726
-2.0918305627696635 -3.7421317689854034 -2.0919392705445704
-2.0939123355092306 -3.7446827373000064 -2.0940208085914462
-2.0959689452287229 -3.74722024076441 -2.0960771782927102
-2.0980088842488602 -3.7497513541015587 -2.0981168727118642
-2.1000365149732919 -3.7522769560448594 -2.1001442560149549
-2.1020519482795677 -3.7547931201767333 -2.1021594411005026
-2.104051736547342 -3.7572932854222213 -2.1041589818943595
-2.1060300965923287 -3.7597704015863623 -2.1061370958341841
-2.1079803577333765 -3.7622185112957346 -2.1080871118812473
-2.1098963736568077 -3.7646335927994551 -2.1100028826751644
-2.1117736952527436 -3.7670137772010943 -2.1118799578459207
-2.1136103510648449 -3.7693591777387321 -2.1137163649307613
-2.1154071311312925 -3.771671540211407 -2.1155128935211002
-2.1171673398700281 -3.773953823907036 -2.1172728482249602
-2.1188960792419157 -3.7762097382494631 -2.1190013316996637
-2.1205992224201561 -3.7784432348317425 -2.1207042180642885
-2.122282304554079 -3.7806579779134643 -2.1223870433805314
-2.12394956523494 -3.782856852807192 -2.124054047894528
-2.1256033263162197 -3.7850415910722525 -2.1257075537414556
-2.1272438000747546 -3.7872125846890568 -2.1273477731083102
-2.1288693251340689 -3.7893689330842278 -2.1289730442520064
-2.130476944354748 -3.7915087245711717 -2.1305804095344236
-2.1320631828589737 -3.7936295048756156 -2.1321663935957384
-2.1336248599388866 -3.7957288406519842 -2.1337278153804515
-2.1351597755169924 -3.7978048595832986 -2.1352624746654494
-2.1366671467887584 -3.7998566520930208 -2.136769588716629
-2.1381477270527516 -3.801884453580846 -2.1382499110865011
-2.1396036060133679 -3.8038895794673602 -2.139705531851325
-2.141037755518738 -3.8058741416813578 -2.141139423267512
-2.1424534329796234 -3.8078406201189627 -2.1425548431115135
-2.143853576260699 -3.8097913876657941 -2.1439547295109712
-2.1452403149543336 -3.8117282900667924 -2.1453412121878924
-2.1466146877504655 -3.8136523638838159 -2.1467153298299265
-2.147976604468115 -3.8155637417662867 -2.1480769921497857
-2.1493250372948196 -3.8174617517446576 -2.149425171168404
-2.1506583808070052 -3.8193451754933826 -2.1507582612828929
-2.1519748924877469 -3.8212125986547683 -2.1520745198258666
-2.1532731180434265 -3.8230627711237898 -2.1533724924115185
-2.1545522178870277 -3.8248948992583301 -2.1546513394338386
-2.1558121384666394 -3.8267088131738724 -2.1559110073960318
-2.1570536082009394 -3.8285049845441368 -2.1571522248351252
-2.1582779749888955 -3.8302844054196875 -2.158376339812139
