-1.5795280989615252 -inf -1.5795280989615252
-1.7264132380721674 -7.4152261792708862 -1.7264132380730776
-1.8240106581758028 -5.9392619629035706 -1.8240106594529816
-1.877218728132903 -5.3647823168006742 -1.8772187511275719
-1.9118583085542014 -5.9872550900795581 -1.9118583100886797
-1.9373113139402611 -5.1623677392528673 -1.9373113909670054
-1.9577106992927909 -5.0752041881485482 -1.9577108256987256
-1.9744014894976666 -4.9555855138365897 -1.9744017263002869
-1.988615129720048 -4.8878501213568476 -1.9886154750901014
-2.0009925889721655 -4.8464573422749803 -2.0009930313824879
-2.0120693780017347 -4.8136307940855712 -2.0120699195435857
-2.0220236334445307 -4.7890512308198678 -2.022024268336386
-2.0309978186408188 -4.7712570090879517 -2.0309985368263525
-2.0391835492112052 -4.7582846717630722 -2.0391843408970177
-2.0467333855640735 -4.7486306435421071 -2.046734242524282
-2.053737922679099 -4.7416494930955805 -2.0537388366494105
-2.0602587394820942 -4.7366121361949041 -2.0602597034187291
-2.0663371753141463 -4.7325902984092176 -2.0663381851460314
-2.0720121709461805 -4.7290827052865526 -2.0720132243970851
-2.0773317021713645 -4.7262229044072978 -2.0773327960597345
-2.0823445771136963 -4.7242557864569573 -2.0823457067353963
-2.087088735942214 -4.7231269572939367 -2.0870898965327733
-2.091589204328397 -4.7225367095346741 -2.0915903924489079
-2.0958653850315386 -4.7222635259172534 -2.0958665983065337
-2.0999396058188738 -4.7223110351747023 -2.0999408418024302
-2.1038393899890364 -4.7226735882828342 -2.1038406462711466
-2.1075924122147832 -4.723180986737852 -2.1075936874151876
-2.1112191513403489 -4.7237793101012556 -2.1112204444498158
-2.1147288923644628 -4.7247639944993857 -2.1147302005984256
-2.1181210071670122 -4.7264656217637635 -2.1181223256253315
-2.121389979693193 -4.7287581642423917 -2.1213913040934944
-2.1245320255925681 -4.7310409384368295 -2.1245333552440429
-2.1275507307942758 -4.7327480585085602 -2.1275520685012704
-2.1304585603281697 -4.7338260073813278 -2.1304599093555693
-2.1332732345524545 -4.7346943122960292 -2.1332745957260669
-2.1360114392605436 -4.7358231742051249 -2.1360128105597259
-2.1386837362626579 -4.7373905906686816 -2.1386851145570372
-2.1412934037125991 -4.7392587296337069 -2.141294786721728
-2.1438392469040695 -4.7411911357821888 -2.1438406338257106
-2.1463197664746086 -4.7430860290108601 -2.1463211571417113
-2.1487356662270416 -4.745030175208005 -2.1487370599186701
-2.151089808969974 -4.747161118313267 -2.1510912040948806
-2.1533859188763258 -4.749508809318523 -2.1533873136698731
-2.1556275222706583 -4.7519713883252174 -2.1556289156455389
-2.1578174912982766 -4.7544089627035868 -2.1578188830852413
-2.1599579157772807 -4.7567334832417307 -2.1599593063847934
-2.1620502597194393 -4.7589219123852235 -2.162051649711758
-2.16409591464977 -4.7609789514812461 -2.1640973045692186
-2.1660968995083528 -4.762907889961478 -2.166098289889035
-2.1680561760684377 -4.7647120983941571 -2.1680575674423696
-2.1699773535142399 -4.7664099445456664 -2.1699787463199108
-2.1718640801392924 -4.7680403311408748 -2.1718654745901319
-2.1737195429207897 -4.7696537847057781 -2.1737209389266071
-2.1755461971673894 -4.7712983461600622 -2.1755475943443477
-2.1773455939135094 -4.7730094522626227 -2.1773469916586681
-2.1791182273666497 -4.7748061411571385 -2.1791196249569751
-2.1808635128948175 -4.7766919126645266 -2.1808649095812448
-2.1825800445636197 -4.7786584098803781 -2.1825814396431938
-2.1842661184153012 -4.7806901383065016 -2.1842675112759496
-2.1859203229470793 -4.7827678084120138 -2.1859217130941051
-2.1875419750900894 -4.7848686043638552 -2.1875433621730737
-2.1891313236815824 -4.7869643329701587 -2.1891327075336945
-2.1906895998673175 -4.789020669216593 -2.1906909805489826
-2.1922190214019996 -4.7910002666655699 -2.1922203992242787
-2.1937227552814833 -4.7928698009468568 -2.1937241307846666
-2.1952047342722396 -4.7946085089359142 -2.1952061081501478
-2.1966692251052674 -4.7962151164793716 -2.1966705980843028
-2.1981201665495069 -4.7977108224552255 -2.1981215392455334
-2.1995604418108974 -4.7991370753492109 -2.1995618145955693
-2.2009913207458912 -4.8005479284638178 -2.2009926936571707
-2.2024122666080592 -4.8019982091263479 -2.2024136393338817
-2.2038211798344146 -4.8035304822039638 -2.20382255178062
-2.2052150066009633 -4.8051648003626706 -2.2052163770285694
-2.2065905281292641 -4.8068945710327397 -2.2065918963230009
-2.2079451058940747 -4.8086897144697087 -2.2079464713147161
-2.2092771979825177 -4.8105057824140277 -2.209278560363301
-2.2105865589278887 -4.8122959895437409 -2.2105879182951735
-2.211874142185623 -4.814022636356898 -2.2118754988070866
-2.2131417977258945 -4.8156649951211098 -2.2131431520084212
-2.2143918806086748 -4.8172219761634395 -2.2143932329785153
-2.2156268711788136 -4.8187094123460683 -2.2156282219773584
-2.2168490749717072 -4.8201532674643296 -2.2168504243921343
-2.2180604350716513 -4.8215811298402361 -2.2180617831473323
-2.2192624564998791 -4.8230146456319527 -2.219263803139177
-2.2204562142469377 -4.8244649428610383 -2.2204575592962397
-2.2216424003376606 -4.8259318504623512 -2.2216437436492409
-2.222821367580635 -4.8274063852098489 -2.2228227090650202
-2.2239931477950107 -4.8288751052952265 -2.2239944874462195
-2.2251574496221182 -4.8303247381408733 -2.2251587875141787
-2.2263136607262741 -4.8317458427976701 -2.226314996987257
-2.227460882158114 -4.8331348510927682 -2.2274622169320343
-2.2285980106130062 -4.8344943840009971 -2.2285993440205329
-2.2297238666315649 -4.8358321381511317 -2.2297251987385473
-2.2308373527180283 -4.8371588566150286 -2.2308386835175578
-2.2319376185446534 -4.8384859435948707 -2.2319389479548177
-2.2330242091766715 -4.8398231800057802 -2.2330255370532228
-2.2340971736262824 -4.8411768205684558 -2.2340984997875754
-2.2351571141457379 -4.8425482217958429 -2.2351584384062363
-2.236205162751628 -4.8439331521376942 -2.2362064849592582
-2.2372428815718046 -4.8453220304082591 -2.2372442016429495
-2.2382720965393907 -4.8467013493359182 -2.2382734144839087
