-1.009315566450435 -2.3633207154669295 -1.009741331210632
-0.84459483600800054 -2.1773719235815679 -0.84506437276131751
-0.91494307182185354 -2.361605029629932 -0.91522085641521852
-0.96981661045360068 -2.4114825094185667 -0.97010086455573171
-1.0175525774280698 -2.4348286031673342 -1.0178706456591395
-1.0567550682937263 -2.4550313751777901 -1.0571022436028926
-1.087336949962488 -2.4758121717763675 -1.0877001676918388
-1.1093693309149946 -2.4959948499265776 -1.1097356584415723
-1.1238387443561601 -2.5135201932670526 -1.1241999483733642
-1.1323563611249262 -2.5271186132885934 -1.1327092050198212
-1.1366883345417638 -2.536601281204512 -1.1370329009558206
-1.1383957942931091 -2.5425553018649207 -1.1387336825862449
-1.1386786456135019 -2.545909012879293 -1.1390117855345159
-1.1383721329619027 -2.5475990589227835 -1.1387022215503292
-1.1380136838292519 -2.5483996276017154 -1.1383420139427745
-1.1379238528098417 -2.5488762543166447 -1.1382513269010357
-1.1382761689616863 -2.5494053252359408 -1.1386033764012322
-1.1391494301414665 -2.5502162496129122 -1.1394767315972914
-1.1405639982772047 -2.5514340366986399 -1.140891596695338
-1.1425058677760346 -2.5531139956824082 -1.1428338618616753
-1.1449421408404331 -2.5552672450260566 -1.1452705630268853
-1.1478307335681236 -2.5578783726803554 -1.148159575990208
-1.1511263122321273 -2.5609171825682447 -1.1514555440235966
-1.1547838092118034 -2.564346267035592 -1.1551133877603972
-1.1587604056872647 -2.5681257443783879 -1.159090283779741
-1.1630165555487998 -2.5722161186707245 -1.1633466857661214
-1.1675164191527154 -2.5765799189278314 -1.1678467564502301
-1.1722279420009235 -2.5811825579076934 -1.1725584451067398
-1.177122727400404 -2.5859927011844214 -1.1774533594567395
-1.1821757969507415 -2.5909823363124713 -1.1825065256811102
-1.1873652973360003 -2.5961266649660191 -1.1876960949253134
-1.1926721892621462 -2.6014038968719711 -1.1930030320724432
-1.198079939924373 -2.6067949954967752 -1.1984108081258174
-1.2035742311895864 -2.6122834066203828 -1.2039051083575793
-1.2091426898658411 -2.6178547886946816 -1.2094735625759534
-1.2147746427999952 -2.6234967559706689 -1.2151055002397245
-1.2204608973220256 -2.6291986402995521 -1.2207917309300317
-1.2261935462379893 -2.6349512742911065 -1.22652434937603
-1.231965795838192 -2.6407467965068046 -1.2322965634975051
-1.2377718150210725 -2.6465784781538303 -1.2381025435627867
-1.2436066034987292 -2.6524405700513242 -1.2439372904265995
-1.249465877057046 -2.6583281682787598 -1.249796520820098
-1.2553459679336219 -2.6642370967671272 -1.2556765677559593
-1.2612437385124421 -2.6701638050766575 -1.2615742942473852
-1.2671565066912985 -2.6761052796674963 -1.2674870186970809
-1.2730819814412028 -2.6820589670775075 -1.2734124504756093
-1.2790182072371561 -2.6880227075518677 -1.2793486343686847
-1.284963516191234 -2.693994677807939 -1.285293902724588
-1.2909164868591303 -2.6999733417571487 -1.2912468342730749
-1.2968759088188079 -2.7059574081378686 -1.297206218714645
-1.302840752234484 -2.7119457941365655 -1.3031710262936095
-1.3088101417212191 -2.7179375941873173 -1.3091403816704162
-1.3147833339156121 -2.723932053241681 -1.3151135414989122
-1.3207596982374779 -2.7299285438920038 -1.3210898751935723
-1.3267387003968852 -2.7359265468121062 -1.3270688484412135
-1.3327198882615905 -2.7419256340505641 -1.3330500090723528
-1.338702879752694 -2.7479254547743974 -1.3390329749601406
-1.3446873524821661 -2.7539257231156928 -1.345017423660614
-1.3506730348856122 -2.7599262078213767 -1.3510030835477177
-1.3566596986379999 -2.765926723447815 -1.3569897262308876
-1.3626471521697576 -2.7719271228778754 -1.3629771600726673
-1.3686352351262785 -2.7779272909692248 -1.3689652246494436
-1.3746238136359501 -2.7839271391695446 -1.3749537860204666
-1.3806127762708655 -2.7899266009575899 -1.380942732689348
-1.3866020306007543 -2.7959256279890448 -1.3869319721586106
-1.3925915002547729 -2.8019241868433973 -1.3929214279919539
-1.3985811224179137 -2.8079222562829028 -1.3989110373110229
-1.4045708456992192 -2.8139198249474893 -1.4049007486638824
-1.4105606283179379 -2.8199168894204318 -1.4108905202113542
-1.4165504365614511 -2.8259134526090584 -1.4168803181850595
-1.4225402434754078 -2.8319095223928408 -1.4228701155776155
-1.4285300277521686 -2.8379051104981718 -1.4288598910310985
-1.4345197727885291 -2.8439002315650804 -1.4348496278947525
-1.4405094658878668 -2.849894902376246 -1.4408393134270932
-1.4464990975854339 -2.8558891412230365 -1.4468289381211385
-1.4524886610785928 -2.8618829673870463 -1.4528184951345642
-1.45847815174642 -2.8678764007188058 -1.4588079798092177
-1.4644675667453627 -2.8738694612980784 -1.4647973892666752
-1.4704569046695661 -2.8798621691625033 -1.4707867220684646
-1.4764461652661457 -2.8858545440933413 -1.4767759779312299
-1.4824353491970989 -2.8918466054487926 -1.4827651574885342
-1.4884244578407654 -2.8978383720368151 -1.4887542620922103
-1.4944134931267848 -2.9038298620206126 -1.4947432936472117
-1.5004024573993945 -2.9098210928510291 -1.5007322544748042
-1.5063913533046684 -2.9158120812209846 -1.5067211471997029
-1.5123801836979519 -2.9218028430378592 -1.5127099746574077
-1.5183689515683049 -2.9277933934103869 -1.5186987398185514
-1.5243576599772416 -2.933783746647176 -1.5246874457275486
-1.5303463120094625 -2.9397739162644459 -1.5306760954532405
-1.5363349107336223 -2.9457639150009707 -1.5366646920495806
-1.5423234591714739 -2.951753754838558 -1.5426532385247004
-1.5483119602739822 -2.9577434470266795 -1.5486417378169496
-1.5543004169032184 -2.9637330021101143 -1.5546301927767203
-1.5602888318190277 -2.9697224299586653 -1.5606186061530499
-1.5662772076696226 -2.9757117397981875 -1.5666069805841522
-1.5722655469853863 -2.9817009402423076 -1.5725953185911634
-1.5782538521752839 -2.9876900393243387 -1.5785836225744995
-1.5842421255253769 -2.9936790445289918 -1.5845718948123199
-1.5902303691990188 -2.9996679628235761 -1.5905601374606763
-1.5962185852383775 -3.0056568006884456 -1.5965483525549905
-1.6022067755669896 -3.0116455641465113 -1.6025365420125683
