  -1.6733078e+00
  -1.7606004e+00
  -1.8066416e+00
  -1.8386140e+00
  -1.8627567e+00
  -1.8818147e+00
  -1.8974531e+00
  -1.9103421e+00
  -1.9218950e+00
  -1.9323601e+00
  -1.9417297e+00
  -1.9502162e+00
  -1.9580470e+00
  -1.9653234e+00
  -1.9721287e+00
  -1.9785006e+00
  -1.9844558e+00
  -1.9900395e+00
  -1.9953219e+00
  -2.0003415e+00
  -2.0051152e+00
  -2.0096443e+00
  -2.0139488e+00
  -2.0180628e+00
  -2.0220154e+00
  -2.0258159e+00
  -2.0294607e+00
  -2.0329521e+00
  -2.0363014e+00
  -2.0395221e+00
  -2.0426231e+00
  -2.0456132e+00
  -2.0485017e+00
  -2.0513005e+00
  -2.0540186e+00
  -2.0566618e+00
  -2.0592341e+00
  -2.0617370e+00
  -2.0641744e+00
  -2.0665497e+00
  -2.0688652e+00
  -2.0711235e+00
  -2.0733248e+00
  -2.0754695e+00
  -2.0775590e+00
  -2.0795959e+00
  -2.0815848e+00
  -2.0835297e+00
  -2.0854337e+00
  -2.0873003e+00
  -2.0891313e+00
  -2.0909288e+00
  -2.0926956e+00
  -2.0944329e+00
  -2.0961404e+00
  -2.0978186e+00
  -2.0994668e+00
  -2.1010862e+00
  -2.1026770e+00
  -2.1042405e+00
  -2.1057759e+00
  -2.1072845e+00
  -2.1087670e+00
  -2.1102239e+00
  -2.1116587e+00
  -2.1130718e+00
  -2.1144669e+00
  -2.1158444e+00
  -2.1172052e+00
  -2.1185491e+00
  -2.1198761e+00
  -2.1211848e+00
  -2.1224749e+00
  -2.1237469e+00
  -2.1250007e+00
  -2.1262372e+00
  -2.1274574e+00
  -2.1286624e+00
  -2.1298519e+00
  -2.1310278e+00
  -2.1321903e+00
  -2.1333394e+00
  -2.1344756e+00
  -2.1355999e+00
  -2.1367116e+00
  -2.1378114e+00
  -2.1388995e+00
  -2.1399760e+00
  -2.1410413e+00
  -2.1420949e+00
  -2.1431370e+00
  -2.1441678e+00
  -2.1451883e+00
  -2.1461972e+00
  -2.1471962e+00
  -2.1481854e+00
  -2.1491651e+00
  -2.1501361e+00
  -2.1510987e+00
  -2.1520524e+00
