-1.6579 -1.8751 -1.7575
-1.7953 -2.0139 -1.894
-1.8636 -2.0813 -1.9628
-1.9108 -2.1294 -2.0096
-1.9454 -2.1653 -2.0434
-0.74997 -0.79159 -1.1292
-1.3154 -1.474 -1.4582
-1.6163 -1.8232 -1.7221
-1.8556 -2.0715 -1.9559
-2.0478 -2.2646 -2.1476
-2.1896 -2.4078 -2.2886
-2.3036 -2.5166 -2.4056
-2.4082 -2.6068 -2.5194
-2.4795 -2.6954 -2.5798
-2.5443 -2.7683 -2.6401
-2.611 -2.8385 -2.7049
-2.03 -2.0753 -2.3926
-2.617 -2.8019 -2.7377
-2.9176 -3.1358 -3.0166
-3.1514 -3.376 -3.2467
-3.3308 -3.5607 -3.4233
-3.4807 -3.7096 -3.5738
-3.5914 -3.8199 -3.6846
-3.6821 -3.9048 -3.7786
-3.7582 -3.9832 -3.8533
-3.8277 -4.0561 -3.921
-3.8942 -4.1239 -3.9868
-3.3703 -3.421 -3.7107
-4.0167 -4.1994 -4.1392
-4.3289 -4.5418 -4.431
-4.5549 -4.7778 -4.6512
-4.727 -4.9535 -4.8214
-4.8467 -5.0783 -4.9384
-4.931 -5.1611 -5.0234
-5.0026 -5.2262 -5.0986
-5.0671 -5.2842 -5.1668
-5.1203 -5.335 -5.2213
-5.1662 -5.3871 -5.2637
-4.5425 -4.5849 -4.918
-5.1828 -5.3673 -5.304
-5.4801 -5.6885 -5.5849
-5.6881 -5.9081 -5.7861
-5.8388 -6.0611 -5.9355
-5.9636 -6.1901 -6.0579
-6.043 -6.2708 -6.1366
-6.1175 -6.3449 -6.2113
-6.1808 -6.4159 -6.2706
-6.2364 -6.4691 -6.3274
-6.288 -6.5089 -6.3854
-5.7354 -5.7827 -6.0899
-6.365 -6.5541 -6.4828
-6.6841 -6.885 -6.7938
-6.887 -7.1023 -6.9876
-7.0451 -7.2635 -7.144
-7.1699 -7.3967 -7.264
-7.2415 -7.475 -7.3322
-7.3041 -7.5377 -7.3947
-7.3661 -7.5948 -7.4593
-7.421 -7.6411 -7.5189
-7.4637 -7.675 -7.5668
-6.8527 -6.8956 -7.2259
-7.4664 -7.6563 -7.5836
-7.7754 -7.9745 -7.8862
-7.9694 -8.185 -8.0699
-8.1197 -8.3376 -8.2189
-8.247 -8.4716 -8.3423
-8.3231 -8.552 -8.4162
-8.3919 -8.6237 -8.4834
-8.4559 -8.6918 -8.5452
-8.5112 -8.7399 -8.6043
-8.5551 -8.7689 -8.6567
-7.9677 -8.0125 -8.3322
-8.5624 -8.7527 -8.6794
-8.8798 -9.0753 -8.9931
-9.0774 -9.2903 -9.1796
-9.235 -9.4513 -9.3351
-9.3663 -9.5908 -9.4618
-9.443 -9.6733 -9.5353
-9.5098 -9.7431 -9.6005
-9.575 -9.8081 -9.6658
-9.631 -9.8549 -9.7268
-9.6722 -9.8825 -9.7759
-9.0625 -9.1065 -9.4308
-9.6486 -9.8386 -9.7657
-9.9623 -10.157 -10.076
-10.158 -10.371 -10.26
-10.314 -10.531 -10.414
-10.446 -10.67 -10.541
