-1.1887 -1.2077 -1.7267
-1.317 -1.3369 -1.8461
-1.392 -1.4116 -1.9239
-1.4709 -1.4903 -2.0049
-1.5246 -1.5443 -2.0552
-0.75905 -0.79748 -1.154
-1.1798 -1.1939 -1.7808
-1.4672 -1.4823 -2.054
-1.6812 -1.6973 -2.2547
-1.8634 -1.8799 -2.4314
-2.0153 -2.0325 -2.5754
-2.1544 -2.1718 -2.7109
-2.2851 -2.303 -2.8358
-2.3925 -2.4106 -2.9418
-2.4715 -2.4897 -3.0193
-2.5532 -2.5717 -3.098
-2.1208 -2.1421 -2.6364
-2.5413 -2.5576 -3.1116
-2.7874 -2.804 -3.3541
-2.9782 -2.995 -3.5422
-3.1417 -3.1582 -3.7103
-3.28 -3.2962 -3.852
-3.4032 -3.4191 -3.9785
-3.5293 -3.5451 -4.1063
-3.6285 -3.6445 -4.2023
-3.719 -3.7354 -4.2878
-3.8142 -3.8308 -4.3807
-3.3895 -3.4037 -3.9891
-3.8435 -3.859 -4.4252
-4.0356 -4.0511 -4.6164
-4.1632 -4.1786 -4.7454
-4.2881 -4.3032 -4.8755
-4.3893 -4.4046 -4.9734
-4.4836 -4.4989 -5.0667
-4.5767 -4.592 -5.1594
-4.6626 -4.678 -5.2457
-4.7464 -4.7618 -5.3297
-4.8331 -4.8489 -5.4099
-4.3215 -4.3346 -4.9379
-4.717 -4.7333 -5.2874
-4.9162 -4.9329 -5.4816
-5.0519 -5.0684 -5.6199
-5.156 -5.172 -5.7296
-5.242 -5.258 -5.8154
-5.3247 -5.3405 -5.9018
-5.4057 -5.4217 -5.9802
-5.4736 -5.4896 -6.0486
-5.5402 -5.5561 -6.1159
-5.6075 -5.6234 -6.1833
-4.8617 -4.8702 -5.5688
-5.3982 -5.4159 -5.9513
-5.5927 -5.6097 -6.1538
-5.7414 -5.7585 -6.3016
-5.8337 -5.85 -6.4038
-5.9144 -5.9309 -6.4815
-5.9838 -6.0005 -6.5492
-6.0523 -6.0689 -6.6188
-6.118 -6.1344 -6.6871
-6.1799 -6.1961 -6.7506
-6.2423 -6.2587 -6.8119
-5.5905 -5.5998 -6.2811
-6.0531 -6.0709 -6.6055
-6.2382 -6.255 -6.8027
-6.3842 -6.4012 -6.9451
-6.4713 -6.4874 -7.0448
-6.5452 -6.5614 -7.1171
-6.6125 -6.6287 -7.184
-6.6779 -6.6941 -7.2494
-6.7383 -6.7544 -7.3111
-6.796 -6.812 -7.3702
-6.8534 -6.8694 -7.4273
-6.1221 -6.1301 -6.8413
-6.6242 -6.6424 -7.1717
-6.8068 -6.8237 -7.3703
-6.9577 -6.9749 -7.5161
-7.0434 -7.0595 -7.6162
-7.1197 -7.136 -7.6902
-7.1853 -7.2017 -7.7546
-7.2502 -7.2665 -7.8202
-7.3104 -7.3265 -7.8821
-7.367 -7.3831 -7.9404
-7.424 -7.4401 -7.9966
-6.7313 -6.7394 -7.4494
-7.2131 -7.2313 -7.7605
-7.3905 -7.4072 -7.9555
-7.5373 -7.5545 -8.0961
-7.6204 -7.6364 -8.1944
-7.6953 -7.7115 -8.2674
-7.7597 -7.776 -8.3308
-7.8234 -7.8395 -8.3951
-7.8823 -7.8984 -8.4554
-7.9381 -7.9541 -8.5126
-7.9941 -8.0101 -8.5682
-7.2904 -7.2982 -8.0168
-7.7798 -7.7981 -8.3271
-7.9553 -7.972 -8.5204
-8.1007 -8.118 -8.6596
-8.1829 -8.1989 -8.757
-8.2582 -8.2744 -8.8305
-8.3217 -8.3379 -8.8929
-8.3847 -8.4009 -8.957
-8.4434 -8.4595 -9.0171
-8.4988 -8.5147 -9.0739
-8.5546 -8.5706 -9.1292
-7.8579 -7.8656 -8.5882
-8.3467 -8.3648 -8.895
-8.5201 -8.5368 -9.0858
-8.6626 -8.6798 -9.2221
-8.7438 -8.7597 -9.3186
-8.8187 -8.8348 -9.3919
-8.8814 -8.8975 -9.4536
-8.9436 -8.9596 -9.5171
-9.0018 -9.0178 -9.5767
-9.0568 -9.0726 -9.6331
-9.1123 -9.1282 -9.6882
-8.4099 -8.4174 -9.1461
-8.9051 -8.9231 -9.455
-9.0777 -9.0944 -9.6433
-9.2179 -9.235 -9.7781
-9.2988 -9.3147 -9.8743
-9.3737 -9.3897 -9.9478
-9.4358 -9.4519 -10.009
-9.4972 -9.5132 -10.072
-9.5552 -9.5711 -10.131
-9.6099 -9.6256 -10.188
-9.6653 -9.6811 -10.243
-8.9572 -8.9645 -9.6988
-9.4593 -9.4771 -10.011
-9.6314 -9.6481 -10.197
-9.769 -9.786 -10.33
-9.85 -9.8658 -10.426
-9.9248 -9.9407 -10.5
-9.9863 -10.002 -10.561
-10.047 -10.063 -10.624
-10.105 -10.12 -10.683
-10.159 -10.175 -10.739
-10.214 -10.23 -10.794
-9.496 -9.503 -10.243
-10.007 -10.025 -10.562
-10.18 -10.196 -10.745
-10.315 -10.332 -10.877
-10.396 -10.412 -10.974
-10.471 -10.487 -11.048
