-1.7271 -2.2833 -1.7446
-1.8243 -2.3723 -1.8425
-1.8775 -2.4205 -1.8961
-1.9121 -2.456 -1.9306
-1.9375 -2.4822 -1.956
-0.73667 -0.77856 -1.1146
-1.034 -1.5598 -1.0542
-1.2607 -1.8573 -1.2751
-1.435 -2.0208 -1.4501
-1.595 -2.1757 -1.6105
-1.7084 -2.3019 -1.723
-1.8196 -2.3724 -1.8373
-1.9071 -2.4929 -1.9223
-1.9802 -2.5822 -1.9942
-2.0498 -2.6435 -2.0644
-2.1175 -2.7295 -2.1308
-1.7441 -1.8195 -2.0104
-2.1372 -2.7014 -2.154
-2.3495 -2.96 -2.363
-2.507 -3.121 -2.5202
-2.6491 -3.259 -2.6626
-2.7479 -3.3724 -2.7605
-2.8182 -3.4167 -2.8324
-2.8863 -3.4621 -2.9022
-2.9584 -3.5372 -2.974
-3.0187 -3.5979 -3.0343
-3.0753 -3.6599 -3.0905
-2.5947 -2.6642 -2.876
-3.0129 -3.5722 -3.0301
-3.2321 -3.8412 -3.2456
-3.3585 -3.9695 -3.372
-3.4667 -4.0781 -3.4801
-3.5404 -4.1487 -3.554
-3.6171 -4.2278 -3.6305
-3.683 -4.2854 -3.697
-3.7318 -4.3375 -3.7455
-3.7777 -4.3731 -3.7921
-3.832 -4.424 -3.8467
-3.2657 -3.3301 -3.5611
-3.7293 -4.2805 -3.7472
-3.9503 -4.5784 -3.9627
-4.0826 -4.6938 -4.096
-4.1872 -4.7987 -4.2006
-4.2564 -4.8643 -4.27
-4.3161 -4.9148 -4.3303
-4.3719 -4.9702 -4.3862
-4.4225 -5.0205 -4.4368
-4.47 -5.0655 -4.4845
-4.5157 -5.0994 -4.531
-3.9298 -3.9993 -4.211
-4.3694 -4.9282 -4.3866
-4.582 -5.2148 -4.5941
-4.7005 -5.321 -4.7133
-4.797 -5.4158 -4.8099
-4.8697 -5.4782 -4.8833
-4.9349 -5.5577 -4.9476
-4.9957 -5.619 -5.0083
-5.0447 -5.6558 -5.0581
-5.0837 -5.6817 -5.098
-5.1241 -5.7122 -5.139
-4.5233 -4.5941 -4.8013
-4.9421 -5.4931 -4.96
-5.1585 -5.7905 -5.1706
-5.297 -5.9189 -5.3098
-5.4 -6.0198 -5.4129
-5.4679 -6.0758 -5.4815
-5.5292 -6.1385 -5.5427
-5.5835 -6.1999 -5.5966
-5.6283 -6.2366 -5.6419
-5.6689 -6.264 -5.6834
-5.7085 -6.2828 -5.7245
-5.1329 -5.215 -5.3838
-5.5116 -6.0711 -5.5288
-5.7228 -6.3602 -5.7347
-5.8552 -6.4819 -5.8677
-5.9564 -6.5802 -5.9691
-6.0276 -6.6301 -6.0416
-6.0911 -6.708 -6.1042
-6.1513 -6.7744 -6.164
-6.1998 -6.8093 -6.2133
-6.238 -6.8343 -6.2524
-6.2756 -6.854 -6.2913
-5.6816 -5.763 -5.9341
-6.0363 -6.5926 -6.0538
-6.2477 -6.8827 -6.2597
-6.391 -7.0205 -6.4032
-6.4974 -7.1245 -6.5098
-6.5675 -7.1752 -6.5811
-6.6318 -7.2456 -6.645
-6.6891 -7.31 -6.7019
-6.7347 -7.3447 -6.7482
-6.7743 -7.3684 -6.7889
-6.813 -7.3831 -6.8293
-6.2444 -6.3339 -6.48
-6.5763 -7.1374 -6.5934
-6.7859 -7.4232 -6.7977
-6.9267 -7.558 -6.9389
-7.0328 -7.6621 -7.0451
-7.1049 -7.7096 -7.1188
-7.1691 -7.7848 -7.1823
-7.2294 -7.8514 -7.2421
-7.2777 -7.8872 -7.2912
-7.3168 -7.9122 -7.3313
-7.3548 -7.9283 -7.3709
-6.7726 -6.8597 -7.0128
-7.0965 -7.6563 -7.1137
-7.3062 -7.9421 -7.3181
-7.4514 -8.084 -7.4635
-7.56 -8.1909 -7.5722
-7.6321 -8.24 -7.6457
-7.697 -8.312 -7.7102
-7.7562 -8.3776 -7.769
-7.8033 -8.4133 -7.8168
-7.8429 -8.4373 -7.8574
-7.8814 -8.4511 -7.8978
-7.3102 -7.4004 -7.5445
-7.6254 -8.1874 -7.6424
-7.8347 -8.4716 -7.8466
-7.9791 -8.6123 -7.9912
-8.088 -8.7199 -8.1001
-8.161 -8.7676 -8.1747
-8.2257 -8.8409 -8.2388
-8.2862 -8.9077 -8.2989
-8.3347 -8.9446 -8.3482
-8.3743 -8.9696 -8.3888
-8.4126 -8.9841 -8.4288
-7.8327 -7.9206 -8.0713
-8.1464 -8.708 -8.1634
-8.356 -8.9923 -8.3679
-8.5021 -9.1359 -8.5142
-8.6123 -9.2449 -8.6245
-8.6855 -9.2937 -8.6991
-8.7505 -9.3655 -8.7636
-8.8107 -9.432 -8.8234
-8.8588 -9.4692 -8.8722
-8.8986 -9.4937 -8.9131
-8.937 -9.5069 -8.9533
-8.3602 -8.4486 -8.5979
-8.6712 -9.2338 -8.6881
-8.881 -9.5175 -8.8929
-9.0269 -9.6608 -9.039
-9.1375 -9.7705 -9.1496
-9.2111 -9.8189 -9.2247
-9.2759 -9.8908 -9.2891
-9.3367 -9.9581 -9.3495
-9.3856 -9.9962 -9.399
-9.4254 -10.021 -9.4399
-9.4637 -10.034 -9.48
-8.8817 -8.9685 -9.1227
-9.1928 -9.7554 -9.2097
-9.403 -10.039 -9.4149
-9.5497 -10.184 -9.5618
-9.6611 -10.294 -9.6732
-9.7348 -10.343 -9.7484
-9.7997 -10.414 -9.8128
-9.8604 -10.482 -9.8732
-9.9093 -10.52 -9.9227
-9.9492 -10.545 -9.9637
-9.9875 -10.558 -10.004
-9.4055 -9.492 -9.6473
-9.716 -10.279 -9.7329
-9.9265 -10.563 -9.9384
-10.073 -10.707 -10.085
-10.185 -10.819 -10.197
-10.259 -10.867 -10.273
