-2.5558460568938771
-2.4641500695519637
-1.9833999735905818
-1.5366625553623831
-0.98320789942680861
-0.46506785809311468
0.11696197305812624
0.66135107866779396
1.2175992502814038
1.7652078594300335
2.3156164570460068
2.8652372697360133
3.4134407957063343
3.9626220694147454
4.5108266156648046
5.0594604958281215
5.6077750504304081
6.1561472230810065
6.7044605482271933
7.2527460128804535
7.8010455855117674
