-2.5558460568938771
-3.8971098649593656
-4.5519558889155904
-5.0007544421464059
-5.3832007151369624
-5.7522592984249321
-6.1127965076272053
-6.4737333525795626
-6.83032989619485
-7.1878286330837368
-7.5431681351198379
-7.8989448434657119
-8.2537796816413104
-8.6088214230817208
-8.9635313667735126
-9.3184126614677855
-9.6733083200472419
-10.028505903147696
-10.384388674721145
-10.742119337238154
-11.103023712493349
