-2.5558460568938771
-3.2643880970066998
-3.5270520593550981
-3.8530928173917879
-4.2214882895808823
-4.5573616288943972
-4.8269762862187649
-4.8802734581282377
-4.9430189995097133
-5.0544735339403442
-5.2195955696244881
-5.4274642436300976
-5.680638567890512
-5.9770716247075006
-6.2995353555223975
-6.5449449564759397
-6.6524406087596014
-6.7421564930777786
-6.8694742631391223
-7.0353836609964418
-7.2335214390382888
