-2.4043600231590848
-2.8843018541959696
-3.4666137538889225
-3.9783101983474939
-4.3684025583968977
-4.7110863463205721
-5.0136516920517404
-5.2564847606618492
-5.4649792621528355
-5.662345299412509
-5.8652793903506622
-6.0778047776928298
-6.30101055131759
-6.5341143173189031
-6.7762434867038822
-7.0263993125368776
-7.2836315541584756
-7.5468785925363326
-7.8148524762912866
-8.0857326436386706
-8.3569507063525989
