-2.5558460568938771
-2.9097617063885501
-2.8471916860384045
-2.8394774384925061
-2.7552928310004812
-2.6933080229607976
-2.5938574502237557
-2.535862834270861
-2.4871730216321071
-2.4524823249367214
-2.4235843137254582
-2.4023821044979204
-2.3928319541258323
-2.3878039101022391
-2.3950407593166039
-2.4100166887351298
-2.4375168925392838
-2.4770584869154906
-2.534510112763361
-2.6147308652610625
-2.7329947288859438
