-2.4043600231590848
-2.4307651766530073
-2.7179172553289238
-3.1256177039665057
-3.4297113589832257
-3.6420004482613428
-3.8101375660536412
-3.8874052920409888
-3.9353260230013009
-3.9954761916980256
-4.0639243878772772
-4.1492829772214751
-4.2451379446049556
-4.340930713006572
-4.4498926953082139
-4.5413349185729693
-4.6531090875534985
-4.7336469557867959
-4.8437607525784713
-4.9138094598101786
-5.0212816242625731
