-inf
-2.1607517358184684
-2.8024012765440359
-3.4935677942375672
-4.1492222117573367
-4.8353948834584812
-5.490518461043136
-6.1702808633629657
-6.8256428884770676
-7.4995796504794533
-8.1547102272496396
-8.8230941723057666
-9.4849949244195872
-10.060839834430412
-10.096224527503537
-10.491639638290807
-10.715687733176885
-10.960739923477076
-11.161982057084566
