-inf
-3.1776192038265978
-3.6874531207909501
-4.2274016642580949
-4.6129474474960666
-4.9776769962810725
-5.296198385079668
-5.5869914294855946
-5.8624042838020598
-6.1263571073113152
-6.3804038844589916
-6.6255837550190213
-6.8624726133873045
-7.0913956045028198
-7.312617520654638
-7.5264818571468463
-7.7334687377251716
-7.9342194091618074
-8.1294960810644039
-8.3201127757070236
-8.506871181473549
