-inf
-3.1492140817064858
-3.7399720479618463
-4.2493292495751469
-4.6686715965820614
-5.0458432115223478
-5.3110272103594089
-5.5649606855642192
-5.7958502042763319
-6.0202488740910448
-6.2398018926206081
-6.4564073264264287
-6.6708016085431789
-6.8837290006457782
-7.0953322065434941
-7.3059217884725554
-7.5155297265799946
-7.7242838341304752
-7.9322416482724274
-8.1394463337197462
-8.3460759778654868
