-inf
-2.9768260533603472
-2.5174090914694449
-1.7995968235444242
-1.1087000582554482
-0.32581286545516201
0.42618305185457312
1.2066519277543425
1.9216559486132204
2.7006188795142469
3.3954816840908964
4.1919850955956406
4.9015821530971366
5.6881802121006159
6.4136680361747723
7.1906964747211673
7.9040934493821903
8.6893038353659833
9.3940512052776842
10.187633018050659
10.900372175086301
