-inf
-3.0807290608959201
-3.3445934472879753
-3.6748942060015116
-4.0468472234611771
-4.3861883932919488
-4.6533548921256531
-4.6998640991256915
-4.7637049392214123
-4.8753639732879154
-5.0417889606247774
-5.2508957491309853
-5.5056419205738929
-5.8044888427688009
-6.1297909458737586
-6.3745639998503177
-6.4782594169367965
-6.5668492688954443
-6.6945259697320718
-6.861462697723885
-7.0610769260462094
