-inf
-4.3814488576999483
-5.1841117645973581
-5.8195295437958974
-6.5282199958931627
-7.0899344306346263
-7.6738424345755261
-8.1988893418892422
-8.7098052218326281
-9.2091505093404474
-9.7040099302512552
-10.198451740932902
-10.689100948125018
-10.781760421807243
-10.766823925204107
-10.855563880592562
-10.719146089086174
-10.996554938938459
-10.84125050714928
-10.818507038147226
-10.67665089719391
