-inf
-2.7435257226532668
-3.7995533439607123
-4.8271974823347756
-5.8197590718836253
-6.7896250553037395
-7.7446729584018711
-8.6967079263384509
-9.6969062745165109
-10.214996664655356
-10.503610633012312
-10.638933139437532
-10.816666540646684
-10.990443875422704
-11.155805439537282
