-inf
-3.24981602522922
-4.5429916807993884
-5.5481465974165989
-6.3228247464065422
-6.9714970558577938
-7.5717006616792025
-8.1540603923157506
-8.7295033954452912
-9.3019343216348532
-9.872720390402547
-10.016884395883781
-10.140297440675548
-10.255267060091728
-10.371951634001868
-10.487866077807715
-10.604871242277364
-10.722039685242205
-10.840014607166728
-10.957956975043861
-11.075967303471641
