-2.5558460568938771
-2.1396110756629013
-1.3494721240841694
-0.58880788386352399
0.28210553561924079
1.1153536337060975
2.0188644886362664
2.8839893660950194
3.7634428946590152
4.6333355403945358
5.5065778490220961
6.3783978095122511
7.2495966495676002
8.1209945367463148
8.9920322134085813
9.8631444872147405
10.734172107541891
11.605168135521955
12.476127569102254
13.347074566388081
14.218006335835191
