-2.3893215646260907
-2.979331108284549
-3.8004019191952632
-4.4563548007790015
-4.9584919331384573
-5.3703048208166068
-5.752854513252461
-6.1279141438893734
-6.4988261185052141
-6.8674255944023119
-7.2343391023923128
-7.6000753538937832
-7.9649315299516489
-8.3291198419994355
-8.6927975473454393
-9.056127867820743
-9.4189249275757681
-9.7803081360732527
-10.047209807219678
-10.057889573345057
-10.02964689871069
