-2.4043600231590848
-3.0013748211588806
-3.8474641987335687
-4.4770477554459369
-4.970416903874877
-5.4352210700110918
-5.8782469571061022
-6.2904229574161449
-6.6714417419949431
-7.0316238934980456
-7.3823996090826249
-7.7302336899077607
-8.076967090643477
-8.4218199469278223
-8.7627564943650461
-9.0979997605020459
-9.4258762375862595
-9.7467711016152308
-10.019441101021009
-10.058140804056361
-10.047134678977784
