-2.7017190269845125
-2.9895486600078524
-3.2534149223921054
-3.4735803986991822
-3.6578084636914433
-3.8700436338153654
-4.1016779827382556
-4.2493055525312986
-4.3860206911231859
-4.4802266828173527
-4.6605988058814396
-4.79347599073809
-4.9977521393303996
-5.1526386978194098
-5.2922757068077527
-5.409159724065277
-5.5126704540886998
-5.6376561887080192
-5.7666715632959224
-5.9192181684877215
-6.0744138865736311
