-2.0993904024942814
-2.9562685822404812
-3.5145084539328832
-4.0870074751158885
-4.3629710611227298
-4.5917982163817506
-4.7326160479535974
-4.8552599416057539
-4.9598454555396632
-5.0562202122198149
-5.1476211527482089
-5.236306206817371
-5.3234172126968663
-5.4096177004419644
-5.4952853833428664
-5.5806400076359095
-5.6658105618358331
-5.7508719336941547
-5.8358691022550428
-5.920827227008446
-6.0057622042021315
