-2.5558460568938771
-3.0528419110811958
-4.064525945393967
-4.8581514072168011
-5.5259771593687131
-6.0820810720759012
-6.5961759807063041
-7.0764287036245659
-7.5319356816439475
-7.9698171946567178
-8.3953522636311486
-8.8122340738582683
-9.2229595584308318
-9.6293479334099474
-10.031904524503791
-10.055490816201067
-10.160716953525149
-10.232840338904568
-10.322389170154239
-10.394957687867261
-10.484931280897065
