-2.4043600231590848 -2.4043600231590848 -inf
-3.3195820289863607 -5.4394697761018513 -3.3195945313268892
-5.9196875623592437 -8.051813557973083 -5.9196993795471554
-8.0081743532065722 -10.072077866393629 -8.0081905326459311
-10.069351231089526 -12.167287785673702 -10.069365063409885
