-2.2519368090565768 -2.2519368090565768 -inf
-3.7301114793893379 -5.6275856554523028 -3.7301463003528447
-5.6777532811448853 -7.6478078522002518 -5.677778208149856
-7.3137445346042826 -9.3134821467355165 -7.3137662766714597
-8.8153371982701393 -10.819344347240668 -8.8153585170004795
-10.152667425809745 -12.145049369302075 -10.152689917024877
