-2.2519368090565768 -2.2519368090565768 -inf
-3.3426388852234751 -3.3495442797772446 -4.0948653416379008
-4.2522839060718406 -4.2601531689949318 -4.976616785156311
-4.8890346905748185 -4.8925583308997529 -5.7856755004162082
-5.197482417644953 -5.200120621511803 -6.1565231655985224
-5.4220006244130038 -5.4241757851843805 -6.4227187736467079
-5.631418120869285 -5.6335696626114531 -6.6344952731773179
-5.8392765049104401 -5.8414278818332622 -6.8423702101960033
-6.0479203795303508 -6.0500854037182919 -7.0496477736723197
-6.2575744471055426 -6.2597498576710573 -7.2582677854026863
-6.4679151308705962 -6.470097554770752 -7.4679130321866925
-6.678654457036797 -6.6808413294359893 -7.6782124117320716
-6.8896041769564208 -6.8917939376707516 -7.8888769650534278
-7.1006600029716513 -7.1028516053915451 -8.0997511547195674
-7.3117705065135602 -7.3139634617540931 -8.3107283353968299
-7.5228868290915537 -7.5250807339054221 -8.5217511252099547
-7.7340113481086467 -7.7362059950387085 -8.7328025742658465
-7.9451331625358103 -7.9473284108319481 -8.9438651954290856
-8.156281968717195 -8.1584759406725879 -9.1551396529504444
-8.3673731607628911 -8.3695676289995904 -9.3661819790875485
-8.5784379929458347 -8.5806349988204513 -9.5769971184237976
