-2.4043600231590848 -2.4043600231590848 -inf
-4.0044248522126395 -4.2552707161907651 -4.0865790418334436
-5.1548757874859278 -5.2239243618055023 -5.4372858067885592
-5.9171868295202005 -5.9816067954145878 -6.2124680105799712
-6.6176087950400955 -6.6749498695865668 -6.9347930346613871
-7.303201521788027 -7.3534838883167781 -7.645527086090249
-7.9511024534404253 -7.999502833434999 -8.3008060991708871
-8.587195768639379 -8.630375945482391 -8.9591631549076285
-9.2059964064977786 -9.2492794523739624 -9.5774968225752634
-9.8145244845795847 -9.8598900274693916 -10.176826601573583
-10.093163907280353 -10.153465062178722 -10.400831548150129
