-2.5558460568938771 -2.5558460568938771 -inf
-3.4031574476310514 -3.6619529761815383 -3.4817514325063978
-4.233581875663669 -4.4877083288330274 -4.3142439613224785
-5.0573138928523202 -5.2676263117446806 -5.1609929775852479
-5.7905629475614863 -5.9235987116205909 -5.9600883147682388
-6.3393430109695819 -6.3861564732224213 -6.6955211719699357
-6.7480521817324778 -6.7818393087560487 -7.1687282681324861
-7.1139498024574018 -7.1453645472029449 -7.5492782322348365
-7.4616274304111956 -7.4935834917274782 -7.8935100832954495
-7.7951672861706567 -7.8281910273317624 -8.2204339586981328
-8.1176923525140992 -8.1519054130552203 -8.5358555196875993
-8.4316909447750012 -8.4669884627471938 -8.8436057614527058
-8.7393495418654112 -8.7755520507980261 -9.1462071928671956
-9.0419280482291752 -9.0791280635753642 -9.4433681847779093
-9.3407270570179297 -9.3788571766679474 -9.737256283748244
-9.6355782584120193 -9.6777944844737671 -10.011981959396384
-9.9271252045613251 -9.9846815770114996 -10.243598558493276
-10.022794844880972 -10.094218321925117 -10.298985277209369
