-2.2519368090565768 -2.2519368090565768 -inf
-2.0382159895094229 -2.0382713296033567 -3.8351008708003782
-2.5264326126596555 -2.5264837840483583 -4.3403217541041502
-2.6855846231993943 -2.6856404281859028 -4.4806531791757469
-2.659706756251768 -2.6597618635109405 -4.4575070614212499
-2.5764055190342393 -2.5764604844451157 -4.3747654196044037
-2.6120004129994594 -2.6120533189451644 -4.4186517823044011
-2.3988777704333721 -2.3989335134524313 -4.1941875558957322
-2.434914933316638 -2.4349683612389833 -4.2394346615101254
-2.1555766285880019 -2.1556331633111097 -3.947824418429025
-2.1098898785693628 -2.1099452196912137 -3.9067707270004751
-1.8414331712799522 -1.8414900249360027 -3.6324595564010001
-1.7215944517474663 -1.7216507051554599 -3.5149253164664672
-1.4849609799906508 -1.4850178514039745 -3.2759195623292722
-1.3256604608165603 -1.325717021495245 -3.1178085923504862
-1.1101255337377577 -1.1101823603048741 -2.9012553936303499
-0.9322878160058924 -0.93234448688904381 -2.7240133183090094
-0.72783414224623528 -0.7278909331630368 -2.5191002550276832
-0.54141309597676587 -0.54146981102334333 -2.332969464158887
-0.34241484932298939 -0.34247161996584472 -2.1337584858013129
-0.15199264109939229 -0.1520493753210947 -1.943475614684048
