-2.2519368090565768 -2.2519368090565768 -inf
-3.7504216646610053 -3.7848474763159086 -4.1673422752565999
-4.9875750879949788 -5.0223471519634241 -5.4024910884489522
-5.8288514348635628 -5.8426559058090188 -6.4340843801713211
-6.4279140384070409 -6.4409760379579602 -7.0447846266185082
-7.0231691964114644 -7.0351136590245511 -7.6589079026650523
-7.6161116684183493 -7.6275520369102699 -8.2609638905364266
-8.2107127539035377 -8.221823024563682 -8.8617590424907823
-8.8057474621679138 -8.8165999057620122 -9.4617644746092639
-9.4005411331402126 -9.4111846437209635 -10.060675861338179
-10.00913663044893 -10.020382015606188 -10.657625048870173
