-2.0993904024942814 -2.0993904024942814 -inf
-0.51102782900592203 -0.52784409097102345 -1.0748941267155529
0.78436679837778501 0.76757629565987291 0.22018033178045871
2.0815878476765314 2.0647974328213621 1.5174002881353195
3.3788589762421708 3.3620685617754337 2.8146714118691532
4.6761307803408736 4.6593403658542328 4.1119432162154425
5.9734025973557159 5.9566121828683673 5.4092150332390899
7.2706744145689314 7.2538840000815544 6.7064868504526581
8.5679462317859308 8.5511558172985527 8.0037586676696697
9.8652180490029979 9.8484276345156199 9.3010304848867373
11.162489866220066 11.145699451732688 10.598302302103806
12.459761683437135 12.442971268949757 11.895574119320874
13.757033500654204 13.740243086166826 13.192845936537943
15.054305317871272 15.037514903383894 14.490117753755012
16.351577135088341 16.334786720600963 15.78738957097208
17.648848952305409 17.632058537818031 17.084661388189149
18.946120769522478 18.9293303550351 18.381933205406217
20.243392586739546 20.226602172252168 19.679205022623286
21.540664403956615 21.523873989469237 20.976476839840354
22.837936221173684 22.821145806686306 22.273748657057423
24.135208038390752 24.118417623903374 23.571020474274492
