-2.4043600231590848 -2.4043600231590848 -inf
-4.1191380303592729 -4.4796831897187266 -4.1649138306991997
-5.4821337603610931 -5.5950481438369617 -5.6781525339632351
-6.4156714713760737 -6.5179344902638966 -6.628317879512465
-7.2904875629628348 -7.3846259161588824 -7.5173527895805834
-8.1496395656672259 -8.2390181685466686 -8.3855585456433557
-8.9743729621872995 -9.0631750979221454 -9.2114284381572482
-9.7813985821817265 -9.8698572546197424 -10.019135473262751
-10.025234768160605 -10.175634739686119 -10.175864853262609
