-2.5558460568938771 -2.5558460568938771 -inf
-3.6497426081052782 -4.1219632205462068 -3.6759392998543364
-4.8426091604110165 -5.2571640536735499 -4.877443997279513
-5.9547199485631156 -6.0962839207052505 -6.1145708647838106
-6.6429873926343784 -6.7621956634177892 -6.8300955453500608
-7.2655895561793191 -7.3405994448985928 -7.5328338478848645
-7.7994945317404181 -7.859848785572745 -8.1069963667562353
-8.2899908864979957 -8.3428609516079697 -8.6226620617403781
-8.759022989665567 -8.8092732963342572 -9.1014716384085574
-9.2194896133038671 -9.2688384437268049 -9.5654356633443451
-9.6784519618154328 -9.7293292281667815 -10.018509409502028
-10.072423106501892 -10.147276963964767 -10.340046028212363
