-2.4043600231590848 -2.4043600231590848 -inf
-2.4887180172132021 -4.6743219025141588 -2.4887272547415154
-4.8197370203406137 -7.1088168253670313 -4.8197427562256926
-6.5235146237772149 -8.816693919948496 -6.5235202523897287
-8.038760342856394 -10.346761332352785 -8.0387656000938553
-9.5371030039901038 -11.853654133083466 -9.5371080582446651
-10.196259997624243 -12.45715562583569 -10.196266528472454
