-2.3893215646260907 -2.3893215646260907 -inf
-3.6899057898226335 -5.6078188185565793 -3.6899374825745092
-5.8596465675471053 -7.7841820610540991 -5.8596773082694966
-7.9266231684263629 -9.8292419847399013 -7.9266571740456388
-9.8700307600458646 -11.799551932431688 -9.8700608029570174
-10.669327799601602 -12.45127181787622 -10.669387081971943
