-2.5558460568938771 -2.5558460568938771 -inf
-3.8426413676970213 -4.5230835166167543 -3.852313136095398
-5.3108246635377674 -5.8857741355893109 -5.3267726461184778
-6.6418033186859483 -6.8747097353891024 -6.732732239835163
-7.5322007015777092 -7.6895781397162541 -7.6760635034540961
-8.3204747822805787 -8.4310625926936046 -8.5199506133353488
-9.0521787375033302 -9.1524184053838817 -9.2682313024273267
-9.7693671283093171 -9.871641953501412 -9.9819939096538432
-10.084298075982337 -10.251915960770594 -10.218959444217171
