-2.0993904024942814 -2.0993904024942814 -inf
-4.7685994801275142 -4.892419328960991 -4.9495575451603662
-6.4149806739476711 -6.4447198179535332 -6.8613934946193719
-7.9197587321776071 -7.9455710901924198 -8.3950003972226331
-9.4106999377268072 -9.4409322375580497 -9.853782302053453
-10.211862061481825 -10.26022387366412 -10.561720241419872
